/home/ahmed/app/hadoop-2.7.2-src/hadoop-hdfs-project/hadoop-hdfs/src/main/java/org/apache/hadoop/hdfs/tools/AdminHelper.java
/home/ahmed/app/hadoop-2.7.2-src/hadoop-hdfs-project/hadoop-hdfs/src/main/java/org/apache/hadoop/hdfs/server/datanode/SecureDataNodeStarter.java
/home/ahmed/app/hadoop-2.7.2-src/hadoop-hdfs-project/hadoop-hdfs/src/main/java/org/apache/hadoop/hdfs/protocolPB/JournalProtocolTranslatorPB.java
/home/ahmed/app/hadoop-2.7.2-src/hadoop-hdfs-project/hadoop-hdfs/src/main/java/org/apache/hadoop/hdfs/server/namenode/NameNodeLayoutVersion.java
/home/ahmed/app/hadoop-2.7.2-src/hadoop-hdfs-project/hadoop-hdfs/src/main/java/org/apache/hadoop/hdfs/server/blockmanagement/BlockInfoContiguous.java
/home/ahmed/app/hadoop-2.7.2-src/hadoop-hdfs-project/hadoop-hdfs/src/main/java/org/apache/hadoop/hdfs/protocolPB/ClientDatanodeProtocolTranslatorPB.java
/home/ahmed/app/hadoop-2.7.2-src/hadoop-hdfs-project/hadoop-hdfs/src/main/java/org/apache/hadoop/hdfs/server/blockmanagement/DatanodeManager.java
/home/ahmed/app/hadoop-2.7.2-src/hadoop-hdfs-project/hadoop-hdfs/src/main/java/org/apache/hadoop/hdfs/server/datanode/FinalizedReplica.java
/home/ahmed/app/hadoop-2.7.2-src/hadoop-hdfs-project/hadoop-hdfs/src/main/java/org/apache/hadoop/hdfs/protocol/datatransfer/Op.java
/home/ahmed/app/hadoop-2.7.2-src/hadoop-hdfs-project/hadoop-hdfs/src/main/java/org/apache/hadoop/hdfs/BlockReaderLocalLegacy.java
/home/ahmed/app/hadoop-2.7.2-src/hadoop-hdfs-project/hadoop-hdfs/src/main/java/org/apache/hadoop/hdfs/server/datanode/fsdataset/FsDatasetSpi.java
/home/ahmed/app/hadoop-2.7.2-src/hadoop-hdfs-project/hadoop-hdfs/src/main/java/org/apache/hadoop/hdfs/protocol/CachePoolIterator.java
/home/ahmed/app/hadoop-2.7.2-src/hadoop-hdfs-project/hadoop-hdfs/src/main/java/org/apache/hadoop/hdfs/server/common/InconsistentFSStateException.java
/home/ahmed/app/hadoop-2.7.2-src/hadoop-hdfs-project/hadoop-hdfs/src/main/java/org/apache/hadoop/hdfs/server/common/IncorrectVersionException.java
/home/ahmed/app/hadoop-2.7.2-src/hadoop-hdfs-project/hadoop-hdfs/src/main/java/org/apache/hadoop/hdfs/qjournal/server/JournalNodeMXBean.java
/home/ahmed/app/hadoop-2.7.2-src/hadoop-hdfs-project/hadoop-hdfs/src/main/java/org/apache/hadoop/hdfs/web/resources/BufferSizeParam.java
/home/ahmed/app/hadoop-2.7.2-src/hadoop-hdfs-project/hadoop-hdfs/src/main/java/org/apache/hadoop/fs/XAttr.java
/home/ahmed/app/hadoop-2.7.2-src/hadoop-hdfs-project/hadoop-hdfs/src/main/java/org/apache/hadoop/hdfs/server/protocol/BlockIdCommand.java
/home/ahmed/app/hadoop-2.7.2-src/hadoop-hdfs-project/hadoop-hdfs/src/main/java/org/apache/hadoop/hdfs/server/namenode/ha/StandbyCheckpointer.java
/home/ahmed/app/hadoop-2.7.2-src/hadoop-hdfs-project/hadoop-hdfs/src/main/java/org/apache/hadoop/hdfs/server/balancer/KeyManager.java
/home/ahmed/app/hadoop-2.7.2-src/hadoop-hdfs-project/hadoop-hdfs/src/main/java/org/apache/hadoop/hdfs/client/BlockReportOptions.java
/home/ahmed/app/hadoop-2.7.2-src/hadoop-hdfs-project/hadoop-hdfs/src/main/java/org/apache/hadoop/fs/BlockStorageLocation.java
/home/ahmed/app/hadoop-2.7.2-src/hadoop-hdfs-project/hadoop-hdfs/src/main/java/org/apache/hadoop/hdfs/server/datanode/fsdataset/AvailableSpaceVolumeChoosingPolicy.java
/home/ahmed/app/hadoop-2.7.2-src/hadoop-hdfs-project/hadoop-hdfs/src/main/java/org/apache/hadoop/hdfs/server/namenode/DfsServlet.java
/home/ahmed/app/hadoop-2.7.2-src/hadoop-hdfs-project/hadoop-hdfs/src/main/java/org/apache/hadoop/hdfs/client/HdfsUtils.java
/home/ahmed/app/hadoop-2.7.2-src/hadoop-hdfs-project/hadoop-hdfs/src/main/java/org/apache/hadoop/hdfs/server/namenode/ha/BootstrapStandby.java
/home/ahmed/app/hadoop-2.7.2-src/hadoop-hdfs-project/hadoop-hdfs/src/main/java/org/apache/hadoop/hdfs/util/ReadOnlyList.java
/home/ahmed/app/hadoop-2.7.2-src/hadoop-hdfs-project/hadoop-hdfs/src/main/java/org/apache/hadoop/hdfs/server/namenode/AclFeature.java
/home/ahmed/app/hadoop-2.7.2-src/hadoop-hdfs-project/hadoop-hdfs/src/main/java/org/apache/hadoop/hdfs/server/datanode/fsdataset/impl/RamDiskReplicaLruTracker.java
/home/ahmed/app/hadoop-2.7.2-src/hadoop-hdfs-project/hadoop-hdfs/src/main/java/org/apache/hadoop/hdfs/web/resources/GetOpParam.java
/home/ahmed/app/hadoop-2.7.2-src/hadoop-hdfs-project/hadoop-hdfs/src/main/java/org/apache/hadoop/hdfs/DeprecatedUTF8.java
/home/ahmed/app/hadoop-2.7.2-src/hadoop-hdfs-project/hadoop-hdfs/src/main/java/org/apache/hadoop/hdfs/server/blockmanagement/DecommissionManager.java
/home/ahmed/app/hadoop-2.7.2-src/hadoop-hdfs-project/hadoop-hdfs/src/main/java/org/apache/hadoop/hdfs/server/blockmanagement/UnresolvedTopologyException.java
/home/ahmed/app/hadoop-2.7.2-src/hadoop-hdfs-project/hadoop-hdfs/src/main/java/org/apache/hadoop/hdfs/server/protocol/NamenodeProtocols.java
/home/ahmed/app/hadoop-2.7.2-src/hadoop-hdfs-project/hadoop-hdfs/src/main/java/org/apache/hadoop/hdfs/tools/offlineImageViewer/ImageLoader.java
/home/ahmed/app/hadoop-2.7.2-src/hadoop-hdfs-project/hadoop-hdfs/src/main/java/org/apache/hadoop/hdfs/server/namenode/ha/StandbyState.java
/home/ahmed/app/hadoop-2.7.2-src/hadoop-hdfs-project/hadoop-hdfs/src/main/java/org/apache/hadoop/hdfs/protocol/ExtendedBlock.java
/home/ahmed/app/hadoop-2.7.2-src/hadoop-hdfs-project/hadoop-hdfs/src/main/java/org/apache/hadoop/hdfs/server/datanode/web/URLDispatcher.java
/home/ahmed/app/hadoop-2.7.2-src/hadoop-hdfs-project/hadoop-hdfs/src/main/java/org/apache/hadoop/hdfs/server/datanode/ReplicaUnderRecovery.java
/home/ahmed/app/hadoop-2.7.2-src/hadoop-hdfs-project/hadoop-hdfs/src/main/java/org/apache/hadoop/hdfs/qjournal/protocolPB/QJournalProtocolPB.java
/home/ahmed/app/hadoop-2.7.2-src/hadoop-hdfs-project/hadoop-hdfs/src/main/java/org/apache/hadoop/hdfs/tools/offlineImageViewer/LsImageVisitor.java
/home/ahmed/app/hadoop-2.7.2-src/hadoop-hdfs-project/hadoop-hdfs/src/main/java/org/apache/hadoop/hdfs/server/namenode/FSImageSerialization.java
/home/ahmed/app/hadoop-2.7.2-src/hadoop-hdfs-project/hadoop-hdfs/src/main/java/org/apache/hadoop/hdfs/web/resources/OldSnapshotNameParam.java
/home/ahmed/app/hadoop-2.7.2-src/hadoop-hdfs-project/hadoop-hdfs/src/main/java/org/apache/hadoop/hdfs/protocol/HdfsLocatedFileStatus.java
/home/ahmed/app/hadoop-2.7.2-src/hadoop-hdfs-project/hadoop-hdfs/src/main/java/org/apache/hadoop/hdfs/web/resources/OffsetParam.java
/home/ahmed/app/hadoop-2.7.2-src/hadoop-hdfs-project/hadoop-hdfs/src/main/java/org/apache/hadoop/hdfs/server/datanode/DataNode.java
/home/ahmed/app/hadoop-2.7.2-src/hadoop-hdfs-project/hadoop-hdfs/src/main/java/org/apache/hadoop/hdfs/server/namenode/FileChecksumServlets.java
/home/ahmed/app/hadoop-2.7.2-src/hadoop-hdfs-project/hadoop-hdfs/src/main/java/org/apache/hadoop/hdfs/server/datanode/BPOfferService.java
/home/ahmed/app/hadoop-2.7.2-src/hadoop-hdfs-project/hadoop-hdfs/src/main/java/org/apache/hadoop/hdfs/qjournal/client/AsyncLoggerSet.java
/home/ahmed/app/hadoop-2.7.2-src/hadoop-hdfs-project/hadoop-hdfs/src/main/java/org/apache/hadoop/hdfs/protocol/SnapshotAccessControlException.java
/home/ahmed/app/hadoop-2.7.2-src/hadoop-hdfs-project/hadoop-hdfs/src/main/java/org/apache/hadoop/hdfs/protocol/datatransfer/PacketHeader.java
/home/ahmed/app/hadoop-2.7.2-src/hadoop-hdfs-project/hadoop-hdfs/src/main/java/org/apache/hadoop/hdfs/server/namenode/EncryptionFaultInjector.java
/home/ahmed/app/hadoop-2.7.2-src/hadoop-hdfs-project/hadoop-hdfs/src/main/java/org/apache/hadoop/hdfs/web/resources/FsActionParam.java
/home/ahmed/app/hadoop-2.7.2-src/hadoop-hdfs-project/hadoop-hdfs/src/main/java/org/apache/hadoop/hdfs/qjournal/server/JournalNode.java
/home/ahmed/app/hadoop-2.7.2-src/hadoop-hdfs-project/hadoop-hdfs/src/main/java/org/apache/hadoop/hdfs/server/namenode/CancelDelegationTokenServlet.java
/home/ahmed/app/hadoop-2.7.2-src/hadoop-hdfs-project/hadoop-hdfs/src/main/java/org/apache/hadoop/hdfs/util/LightWeightLinkedSet.java
/home/ahmed/app/hadoop-2.7.2-src/hadoop-hdfs-project/hadoop-hdfs/src/main/java/org/apache/hadoop/hdfs/BlockReader.java
/home/ahmed/app/hadoop-2.7.2-src/hadoop-hdfs-project/hadoop-hdfs/src/main/java/org/apache/hadoop/hdfs/qjournal/server/JournalNodeRpcServer.java
/home/ahmed/app/hadoop-2.7.2-src/hadoop-hdfs-project/hadoop-hdfs/src/main/java/org/apache/hadoop/hdfs/server/namenode/ContentCounts.java
/home/ahmed/app/hadoop-2.7.2-src/hadoop-hdfs-project/hadoop-hdfs/src/main/java/org/apache/hadoop/hdfs/server/datanode/ReplicaWaitingToBeRecovered.java
/home/ahmed/app/hadoop-2.7.2-src/hadoop-hdfs-project/hadoop-hdfs/src/main/java/org/apache/hadoop/hdfs/server/namenode/ha/EditLogTailer.java
/home/ahmed/app/hadoop-2.7.2-src/hadoop-hdfs-project/hadoop-hdfs/src/main/java/org/apache/hadoop/hdfs/server/blockmanagement/BlockPlacementStatusDefault.java
/home/ahmed/app/hadoop-2.7.2-src/hadoop-hdfs-project/hadoop-hdfs/src/main/java/org/apache/hadoop/hdfs/protocol/UnregisteredNodeException.java
/home/ahmed/app/hadoop-2.7.2-src/hadoop-hdfs-project/hadoop-hdfs/src/main/java/org/apache/hadoop/hdfs/server/common/StorageInfo.java
/home/ahmed/app/hadoop-2.7.2-src/hadoop-hdfs-project/hadoop-hdfs/src/main/java/org/apache/hadoop/hdfs/server/datanode/web/webhdfs/ParameterParser.java
/home/ahmed/app/hadoop-2.7.2-src/hadoop-hdfs-project/hadoop-hdfs/src/main/java/org/apache/hadoop/hdfs/tools/offlineImageViewer/OfflineImageViewer.java
/home/ahmed/app/hadoop-2.7.2-src/hadoop-hdfs-project/hadoop-hdfs/src/main/java/org/apache/hadoop/hdfs/protocolPB/PBHelper.java
/home/ahmed/app/hadoop-2.7.2-src/hadoop-hdfs-project/hadoop-hdfs/src/main/java/org/apache/hadoop/hdfs/server/protocol/CheckpointCommand.java
/home/ahmed/app/hadoop-2.7.2-src/hadoop-hdfs-project/hadoop-hdfs/src/main/java/org/apache/hadoop/hdfs/server/namenode/startupprogress/StepTracking.java
/home/ahmed/app/hadoop-2.7.2-src/hadoop-hdfs-project/hadoop-hdfs/src/main/java/org/apache/hadoop/hdfs/server/namenode/metrics/FSNamesystemMBean.java
/home/ahmed/app/hadoop-2.7.2-src/hadoop-hdfs-project/hadoop-hdfs/src/main/java/org/apache/hadoop/hdfs/qjournal/client/QuorumException.java
/home/ahmed/app/hadoop-2.7.2-src/hadoop-hdfs-project/hadoop-hdfs/src/main/java/org/apache/hadoop/hdfs/server/namenode/startupprogress/PhaseTracking.java
/home/ahmed/app/hadoop-2.7.2-src/hadoop-hdfs-project/hadoop-hdfs/src/main/java/org/apache/hadoop/hdfs/shortcircuit/ShortCircuitReplicaInfo.java
/home/ahmed/app/hadoop-2.7.2-src/hadoop-hdfs-project/hadoop-hdfs/src/main/java/org/apache/hadoop/hdfs/server/namenode/NameNodeRpcServer.java
/home/ahmed/app/hadoop-2.7.2-src/hadoop-hdfs-project/hadoop-hdfs/src/main/java/org/apache/hadoop/hdfs/server/protocol/ReceivedDeletedBlockInfo.java
/home/ahmed/app/hadoop-2.7.2-src/hadoop-hdfs-project/hadoop-hdfs/src/main/java/org/apache/hadoop/hdfs/server/namenode/InotifyFSEditLogOpTranslator.java
/home/ahmed/app/hadoop-2.7.2-src/hadoop-hdfs-project/hadoop-hdfs/src/main/java/org/apache/hadoop/hdfs/tools/offlineEditsViewer/OfflineEditsBinaryLoader.java
/home/ahmed/app/hadoop-2.7.2-src/hadoop-hdfs-project/hadoop-hdfs/src/main/java/org/apache/hadoop/hdfs/server/namenode/top/TopAuditLogger.java
/home/ahmed/app/hadoop-2.7.2-src/hadoop-hdfs-project/hadoop-hdfs/src/main/java/org/apache/hadoop/hdfs/tools/offlineEditsViewer/XmlEditsVisitor.java
/home/ahmed/app/hadoop-2.7.2-src/hadoop-hdfs-project/hadoop-hdfs/src/main/java/org/apache/hadoop/hdfs/qjournal/protocolPB/QJournalProtocolServerSideTranslatorPB.java
/home/ahmed/app/hadoop-2.7.2-src/hadoop-hdfs-project/hadoop-hdfs/src/main/java/org/apache/hadoop/hdfs/server/datanode/fsdataset/FsVolumeReference.java
/home/ahmed/app/hadoop-2.7.2-src/hadoop-hdfs-project/hadoop-hdfs/src/main/java/org/apache/hadoop/hdfs/BlockMissingException.java
/home/ahmed/app/hadoop-2.7.2-src/hadoop-hdfs-project/hadoop-hdfs/src/main/java/org/apache/hadoop/hdfs/server/datanode/BPServiceActor.java
/home/ahmed/app/hadoop-2.7.2-src/hadoop-hdfs-project/hadoop-hdfs/src/main/java/org/apache/hadoop/hdfs/web/resources/XAttrValueParam.java
/home/ahmed/app/hadoop-2.7.2-src/hadoop-hdfs-project/hadoop-hdfs/src/main/java/org/apache/hadoop/hdfs/protocol/datatransfer/DataTransferProtocol.java
/home/ahmed/app/hadoop-2.7.2-src/hadoop-hdfs-project/hadoop-hdfs/src/main/java/org/apache/hadoop/hdfs/tools/offlineImageViewer/PBImageXmlWriter.java
/home/ahmed/app/hadoop-2.7.2-src/hadoop-hdfs-project/hadoop-hdfs/src/main/java/org/apache/hadoop/hdfs/server/namenode/SaveNamespaceCancelledException.java
/home/ahmed/app/hadoop-2.7.2-src/hadoop-hdfs-project/hadoop-hdfs/src/main/java/org/apache/hadoop/hdfs/tools/offlineEditsViewer/OfflineEditsXmlLoader.java
/home/ahmed/app/hadoop-2.7.2-src/hadoop-hdfs-project/hadoop-hdfs/src/main/java/org/apache/hadoop/hdfs/server/blockmanagement/SequentialBlockIdGenerator.java
/home/ahmed/app/hadoop-2.7.2-src/hadoop-hdfs-project/hadoop-hdfs/src/main/java/org/apache/hadoop/hdfs/DFSPacket.java
/home/ahmed/app/hadoop-2.7.2-src/hadoop-hdfs-project/hadoop-hdfs/src/main/java/org/apache/hadoop/hdfs/server/namenode/FSDirAttrOp.java
/home/ahmed/app/hadoop-2.7.2-src/hadoop-hdfs-project/hadoop-hdfs/src/main/java/org/apache/hadoop/hdfs/server/blockmanagement/BlockInfoContiguousUnderConstruction.java
/home/ahmed/app/hadoop-2.7.2-src/hadoop-hdfs-project/hadoop-hdfs/src/main/java/org/apache/hadoop/hdfs/protocol/DirectoryListing.java
/home/ahmed/app/hadoop-2.7.2-src/hadoop-hdfs-project/hadoop-hdfs/src/main/java/org/apache/hadoop/hdfs/tools/snapshot/SnapshotDiff.java
/home/ahmed/app/hadoop-2.7.2-src/hadoop-hdfs-project/hadoop-hdfs/src/main/java/org/apache/hadoop/hdfs/server/datanode/fsdataset/FsVolumeSpi.java
/home/ahmed/app/hadoop-2.7.2-src/hadoop-hdfs-project/hadoop-hdfs/src/main/java/org/apache/hadoop/hdfs/server/namenode/snapshot/AbstractINodeDiffList.java
/home/ahmed/app/hadoop-2.7.2-src/hadoop-hdfs-project/hadoop-hdfs/src/main/java/org/apache/hadoop/hdfs/server/protocol/VolumeFailureSummary.java
/home/ahmed/app/hadoop-2.7.2-src/hadoop-hdfs-project/hadoop-hdfs/src/main/java/org/apache/hadoop/hdfs/util/BestEffortLongFile.java
/home/ahmed/app/hadoop-2.7.2-src/hadoop-hdfs-project/hadoop-hdfs/src/main/java/org/apache/hadoop/hdfs/qjournal/server/JournalMetrics.java
/home/ahmed/app/hadoop-2.7.2-src/hadoop-hdfs-project/hadoop-hdfs/src/main/java/org/apache/hadoop/hdfs/protocol/datatransfer/PipelineAck.java
/home/ahmed/app/hadoop-2.7.2-src/hadoop-hdfs-project/hadoop-hdfs/src/main/java/org/apache/hadoop/hdfs/server/namenode/EditLogBackupInputStream.java
/home/ahmed/app/hadoop-2.7.2-src/hadoop-hdfs-project/hadoop-hdfs/src/main/java/org/apache/hadoop/hdfs/server/common/Util.java
/home/ahmed/app/hadoop-2.7.2-src/hadoop-hdfs-project/hadoop-hdfs/src/main/java/org/apache/hadoop/hdfs/server/namenode/snapshot/FSImageFormatPBSnapshot.java
/home/ahmed/app/hadoop-2.7.2-src/hadoop-hdfs-project/hadoop-hdfs/src/main/java/org/apache/hadoop/hdfs/server/namenode/startupprogress/package-info.java
/home/ahmed/app/hadoop-2.7.2-src/hadoop-hdfs-project/hadoop-hdfs/src/main/java/org/apache/hadoop/hdfs/web/resources/OverwriteParam.java
/home/ahmed/app/hadoop-2.7.2-src/hadoop-hdfs-project/hadoop-hdfs/src/main/java/org/apache/hadoop/hdfs/shortcircuit/DomainSocketFactory.java
/home/ahmed/app/hadoop-2.7.2-src/hadoop-hdfs-project/hadoop-hdfs/src/main/java/org/apache/hadoop/hdfs/tools/offlineImageViewer/XmlImageVisitor.java
/home/ahmed/app/hadoop-2.7.2-src/hadoop-hdfs-project/hadoop-hdfs/src/main/java/org/apache/hadoop/hdfs/tools/offlineImageViewer/PBImageTextWriter.java
/home/ahmed/app/hadoop-2.7.2-src/hadoop-hdfs-project/hadoop-hdfs/src/main/java/org/apache/hadoop/hdfs/web/resources/XAttrNameParam.java
/home/ahmed/app/hadoop-2.7.2-src/hadoop-hdfs-project/hadoop-hdfs/src/main/java/org/apache/hadoop/hdfs/web/WebHdfsFileSystem.java
/home/ahmed/app/hadoop-2.7.2-src/hadoop-hdfs-project/hadoop-hdfs/src/main/java/org/apache/hadoop/hdfs/server/datanode/ErrorReportAction.java
/home/ahmed/app/hadoop-2.7.2-src/hadoop-hdfs-project/hadoop-hdfs/src/main/java/org/apache/hadoop/hdfs/protocol/CachePoolEntry.java
/home/ahmed/app/hadoop-2.7.2-src/hadoop-hdfs-project/hadoop-hdfs/src/main/java/org/apache/hadoop/hdfs/qjournal/client/IPCLoggerChannel.java
/home/ahmed/app/hadoop-2.7.2-src/hadoop-hdfs-project/hadoop-hdfs/src/main/java/org/apache/hadoop/hdfs/protocol/DatanodeID.java
/home/ahmed/app/hadoop-2.7.2-src/hadoop-hdfs-project/hadoop-hdfs/src/main/java/org/apache/hadoop/hdfs/qjournal/protocol/JournalNotFormattedException.java
/home/ahmed/app/hadoop-2.7.2-src/hadoop-hdfs-project/hadoop-hdfs/src/main/java/org/apache/hadoop/hdfs/util/Canceler.java
/home/ahmed/app/hadoop-2.7.2-src/hadoop-hdfs-project/hadoop-hdfs/src/main/java/org/apache/hadoop/hdfs/server/namenode/FSImageFormatProtobuf.java
/home/ahmed/app/hadoop-2.7.2-src/hadoop-hdfs-project/hadoop-hdfs/src/main/java/org/apache/hadoop/hdfs/server/datanode/BPServiceActorActionException.java
/home/ahmed/app/hadoop-2.7.2-src/hadoop-hdfs-project/hadoop-hdfs/src/main/java/org/apache/hadoop/hdfs/web/resources/HttpOpParam.java
/home/ahmed/app/hadoop-2.7.2-src/hadoop-hdfs-project/hadoop-hdfs/src/main/java/org/apache/hadoop/hdfs/server/common/GenerationStamp.java
/home/ahmed/app/hadoop-2.7.2-src/hadoop-hdfs-project/hadoop-hdfs/src/main/java/org/apache/hadoop/hdfs/protocol/datatransfer/Sender.java
/home/ahmed/app/hadoop-2.7.2-src/hadoop-hdfs-project/hadoop-hdfs/src/main/java/org/apache/hadoop/hdfs/server/datanode/fsdataset/ReplicaInputStreams.java
/home/ahmed/app/hadoop-2.7.2-src/hadoop-hdfs-project/hadoop-hdfs/src/main/java/org/apache/hadoop/hdfs/server/namenode/snapshot/SnapshotManager.java
/home/ahmed/app/hadoop-2.7.2-src/hadoop-hdfs-project/hadoop-hdfs/src/main/java/org/apache/hadoop/hdfs/server/namenode/CheckableNameNodeResource.java
/home/ahmed/app/hadoop-2.7.2-src/hadoop-hdfs-project/hadoop-hdfs/src/main/java/org/apache/hadoop/hdfs/server/common/JspHelper.java
/home/ahmed/app/hadoop-2.7.2-src/hadoop-hdfs-project/hadoop-hdfs/src/main/java/org/apache/hadoop/hdfs/server/datanode/BlockPoolManager.java
/home/ahmed/app/hadoop-2.7.2-src/hadoop-hdfs-project/hadoop-hdfs/src/main/java/org/apache/hadoop/hdfs/web/resources/OwnerParam.java
/home/ahmed/app/hadoop-2.7.2-src/hadoop-hdfs-project/hadoop-hdfs/src/main/java/org/apache/hadoop/hdfs/server/namenode/RenewDelegationTokenServlet.java
/home/ahmed/app/hadoop-2.7.2-src/hadoop-hdfs-project/hadoop-hdfs/src/main/java/org/apache/hadoop/hdfs/protocolPB/InterDatanodeProtocolTranslatorPB.java
/home/ahmed/app/hadoop-2.7.2-src/hadoop-hdfs-project/hadoop-hdfs/src/main/java/org/apache/hadoop/hdfs/server/blockmanagement/BlockCollection.java
/home/ahmed/app/hadoop-2.7.2-src/hadoop-hdfs-project/hadoop-hdfs/src/main/java/org/apache/hadoop/hdfs/server/blockmanagement/BlockPlacementPolicy.java
/home/ahmed/app/hadoop-2.7.2-src/hadoop-hdfs-project/hadoop-hdfs/src/main/java/org/apache/hadoop/hdfs/server/namenode/FSEditLogOp.java
/home/ahmed/app/hadoop-2.7.2-src/hadoop-hdfs-project/hadoop-hdfs/src/main/java/org/apache/hadoop/hdfs/server/datanode/StorageLocation.java
/home/ahmed/app/hadoop-2.7.2-src/hadoop-hdfs-project/hadoop-hdfs/src/main/java/org/apache/hadoop/hdfs/server/namenode/INode.java
/home/ahmed/app/hadoop-2.7.2-src/hadoop-hdfs-project/hadoop-hdfs/src/main/java/org/apache/hadoop/hdfs/server/datanode/fsdataset/impl/FsDatasetCache.java
/home/ahmed/app/hadoop-2.7.2-src/hadoop-hdfs-project/hadoop-hdfs/src/main/java/org/apache/hadoop/hdfs/protocol/datatransfer/PacketReceiver.java
/home/ahmed/app/hadoop-2.7.2-src/hadoop-hdfs-project/hadoop-hdfs/src/main/java/org/apache/hadoop/hdfs/server/namenode/FsckServlet.java
/home/ahmed/app/hadoop-2.7.2-src/hadoop-hdfs-project/hadoop-hdfs/src/main/java/org/apache/hadoop/hdfs/server/protocol/NamenodeProtocol.java
/home/ahmed/app/hadoop-2.7.2-src/hadoop-hdfs-project/hadoop-hdfs/src/main/java/org/apache/hadoop/hdfs/security/token/block/DataEncryptionKey.java
/home/ahmed/app/hadoop-2.7.2-src/hadoop-hdfs-project/hadoop-hdfs/src/main/java/org/apache/hadoop/hdfs/qjournal/client/AsyncLogger.java
/home/ahmed/app/hadoop-2.7.2-src/hadoop-hdfs-project/hadoop-hdfs/src/main/java/org/apache/hadoop/hdfs/server/namenode/FSDirRenameOp.java
/home/ahmed/app/hadoop-2.7.2-src/hadoop-hdfs-project/hadoop-hdfs/src/main/java/org/apache/hadoop/hdfs/server/datanode/fsdataset/impl/FsDatasetImpl.java
/home/ahmed/app/hadoop-2.7.2-src/hadoop-hdfs-project/hadoop-hdfs/src/main/java/org/apache/hadoop/hdfs/server/namenode/ImageServlet.java
/home/ahmed/app/hadoop-2.7.2-src/hadoop-hdfs-project/hadoop-hdfs/src/main/java/org/apache/hadoop/hdfs/tools/offlineImageViewer/FileDistributionVisitor.java
/home/ahmed/app/hadoop-2.7.2-src/hadoop-hdfs-project/hadoop-hdfs/src/main/java/org/apache/hadoop/hdfs/web/resources/TokenServiceParam.java
/home/ahmed/app/hadoop-2.7.2-src/hadoop-hdfs-project/hadoop-hdfs/src/main/java/org/apache/hadoop/hdfs/qjournal/protocol/RequestInfo.java
/home/ahmed/app/hadoop-2.7.2-src/hadoop-hdfs-project/hadoop-hdfs/src/main/java/org/apache/hadoop/hdfs/protocol/CacheDirective.java
/home/ahmed/app/hadoop-2.7.2-src/hadoop-hdfs-project/hadoop-hdfs/src/main/java/org/apache/hadoop/hdfs/server/namenode/NotReplicatedYetException.java
/home/ahmed/app/hadoop-2.7.2-src/hadoop-hdfs-project/hadoop-hdfs/src/main/java/org/apache/hadoop/hdfs/server/blockmanagement/BlockIdManager.java
/home/ahmed/app/hadoop-2.7.2-src/hadoop-hdfs-project/hadoop-hdfs/src/main/java/org/apache/hadoop/hdfs/server/datanode/BlockPoolSliceStorage.java
/home/ahmed/app/hadoop-2.7.2-src/hadoop-hdfs-project/hadoop-hdfs/src/main/java/org/apache/hadoop/hdfs/protocol/SnapshotInfo.java
/home/ahmed/app/hadoop-2.7.2-src/hadoop-hdfs-project/hadoop-hdfs/src/main/java/org/apache/hadoop/fs/VolumeId.java
/home/ahmed/app/hadoop-2.7.2-src/hadoop-hdfs-project/hadoop-hdfs/src/main/java/org/apache/hadoop/hdfs/web/resources/PutOpParam.java
/home/ahmed/app/hadoop-2.7.2-src/hadoop-hdfs-project/hadoop-hdfs/src/main/java/org/apache/hadoop/hdfs/server/namenode/snapshot/SnapshotFSImageFormat.java
/home/ahmed/app/hadoop-2.7.2-src/hadoop-hdfs-project/hadoop-hdfs/src/main/java/org/apache/hadoop/hdfs/DFSClient.java
/home/ahmed/app/hadoop-2.7.2-src/hadoop-hdfs-project/hadoop-hdfs/src/main/java/org/apache/hadoop/hdfs/web/resources/Param.java
/home/ahmed/app/hadoop-2.7.2-src/hadoop-hdfs-project/hadoop-hdfs/src/main/java/org/apache/hadoop/hdfs/server/namenode/StoragePolicySummary.java
/home/ahmed/app/hadoop-2.7.2-src/hadoop-hdfs-project/hadoop-hdfs/src/main/java/org/apache/hadoop/hdfs/server/namenode/NameCache.java
/home/ahmed/app/hadoop-2.7.2-src/hadoop-hdfs-project/hadoop-hdfs/src/main/java/org/apache/hadoop/hdfs/net/DomainPeer.java
/home/ahmed/app/hadoop-2.7.2-src/hadoop-hdfs-project/hadoop-hdfs/src/main/java/org/apache/hadoop/hdfs/server/protocol/ReplicaRecoveryInfo.java
/home/ahmed/app/hadoop-2.7.2-src/hadoop-hdfs-project/hadoop-hdfs/src/main/java/org/apache/hadoop/hdfs/server/namenode/metrics/NameNodeMetrics.java
/home/ahmed/app/hadoop-2.7.2-src/hadoop-hdfs-project/hadoop-hdfs/src/main/java/org/apache/hadoop/hdfs/server/namenode/LeaseExpiredException.java
/home/ahmed/app/hadoop-2.7.2-src/hadoop-hdfs-project/hadoop-hdfs/src/main/java/org/apache/hadoop/hdfs/server/namenode/INodeDirectory.java
/home/ahmed/app/hadoop-2.7.2-src/hadoop-hdfs-project/hadoop-hdfs/src/main/java/org/apache/hadoop/hdfs/server/namenode/INodeWithAdditionalFields.java
/home/ahmed/app/hadoop-2.7.2-src/hadoop-hdfs-project/hadoop-hdfs/src/main/java/org/apache/hadoop/hdfs/server/namenode/BackupJournalManager.java
/home/ahmed/app/hadoop-2.7.2-src/hadoop-hdfs-project/hadoop-hdfs/src/main/java/org/apache/hadoop/hdfs/server/namenode/FSNDNCacheOp.java
/home/ahmed/app/hadoop-2.7.2-src/hadoop-hdfs-project/hadoop-hdfs/src/main/java/org/apache/hadoop/hdfs/server/protocol/FenceResponse.java
/home/ahmed/app/hadoop-2.7.2-src/hadoop-hdfs-project/hadoop-hdfs/src/main/java/org/apache/hadoop/hdfs/server/datanode/ReplicaBeingWritten.java
/home/ahmed/app/hadoop-2.7.2-src/hadoop-hdfs-project/hadoop-hdfs/src/main/java/org/apache/hadoop/hdfs/qjournal/protocolPB/QJournalProtocolTranslatorPB.java
/home/ahmed/app/hadoop-2.7.2-src/hadoop-hdfs-project/hadoop-hdfs/src/main/java/org/apache/hadoop/hdfs/web/resources/StringParam.java
/home/ahmed/app/hadoop-2.7.2-src/hadoop-hdfs-project/hadoop-hdfs/src/main/java/org/apache/hadoop/hdfs/server/protocol/StorageBlockReport.java
/home/ahmed/app/hadoop-2.7.2-src/hadoop-hdfs-project/hadoop-hdfs/src/main/java/org/apache/hadoop/hdfs/server/blockmanagement/FSClusterStats.java
/home/ahmed/app/hadoop-2.7.2-src/hadoop-hdfs-project/hadoop-hdfs/src/main/java/org/apache/hadoop/hdfs/tools/offlineImageViewer/FSImageLoader.java
/home/ahmed/app/hadoop-2.7.2-src/hadoop-hdfs-project/hadoop-hdfs/src/main/java/org/apache/hadoop/hdfs/protocol/LayoutVersion.java
/home/ahmed/app/hadoop-2.7.2-src/hadoop-hdfs-project/hadoop-hdfs/src/main/java/org/apache/hadoop/hdfs/protocol/BlockStoragePolicy.java
/home/ahmed/app/hadoop-2.7.2-src/hadoop-hdfs-project/hadoop-hdfs/src/main/java/org/apache/hadoop/hdfs/server/namenode/NameNodeResourceChecker.java
/home/ahmed/app/hadoop-2.7.2-src/hadoop-hdfs-project/hadoop-hdfs/src/main/java/org/apache/hadoop/hdfs/server/protocol/RemoteEditLogManifest.java
/home/ahmed/app/hadoop-2.7.2-src/hadoop-hdfs-project/hadoop-hdfs/src/main/java/org/apache/hadoop/hdfs/server/namenode/FileUnderConstructionFeature.java
/home/ahmed/app/hadoop-2.7.2-src/hadoop-hdfs-project/hadoop-hdfs/src/main/java/org/apache/hadoop/hdfs/web/TokenAspect.java
/home/ahmed/app/hadoop-2.7.2-src/hadoop-hdfs-project/hadoop-hdfs/src/main/java/org/apache/hadoop/hdfs/web/HsftpFileSystem.java
/home/ahmed/app/hadoop-2.7.2-src/hadoop-hdfs-project/hadoop-hdfs/src/main/java/org/apache/hadoop/hdfs/server/namenode/snapshot/DirectoryWithSnapshotFeature.java
/home/ahmed/app/hadoop-2.7.2-src/hadoop-hdfs-project/hadoop-hdfs/src/main/java/org/apache/hadoop/hdfs/server/namenode/JournalManager.java
/home/ahmed/app/hadoop-2.7.2-src/hadoop-hdfs-project/hadoop-hdfs/src/main/java/org/apache/hadoop/hdfs/server/blockmanagement/CacheReplicationMonitor.java
/home/ahmed/app/hadoop-2.7.2-src/hadoop-hdfs-project/hadoop-hdfs/src/main/java/org/apache/hadoop/hdfs/tools/DebugAdmin.java
/home/ahmed/app/hadoop-2.7.2-src/hadoop-hdfs-project/hadoop-hdfs/src/main/java/org/apache/hadoop/hdfs/web/resources/RecursiveParam.java
/home/ahmed/app/hadoop-2.7.2-src/hadoop-hdfs-project/hadoop-hdfs/src/main/java/org/apache/hadoop/hdfs/server/datanode/ReplicaHandler.java
/home/ahmed/app/hadoop-2.7.2-src/hadoop-hdfs-project/hadoop-hdfs/src/main/java/org/apache/hadoop/hdfs/server/datanode/fsdataset/impl/MappableBlock.java
/home/ahmed/app/hadoop-2.7.2-src/hadoop-hdfs-project/hadoop-hdfs/src/main/java/org/apache/hadoop/hdfs/server/namenode/FSDirXAttrOp.java
/home/ahmed/app/hadoop-2.7.2-src/hadoop-hdfs-project/hadoop-hdfs/src/main/java/org/apache/hadoop/hdfs/server/namenode/INodeReference.java
/home/ahmed/app/hadoop-2.7.2-src/hadoop-hdfs-project/hadoop-hdfs/src/main/java/org/apache/hadoop/hdfs/server/namenode/FSDirStatAndListingOp.java
/home/ahmed/app/hadoop-2.7.2-src/hadoop-hdfs-project/hadoop-hdfs/src/main/java/org/apache/hadoop/hdfs/protocol/datatransfer/sasl/DataEncryptionKeyFactory.java
/home/ahmed/app/hadoop-2.7.2-src/hadoop-hdfs-project/hadoop-hdfs/src/main/java/org/apache/hadoop/hdfs/server/datanode/ReplicaInfo.java
/home/ahmed/app/hadoop-2.7.2-src/hadoop-hdfs-project/hadoop-hdfs/src/main/java/org/apache/hadoop/hdfs/protocol/LayoutFlags.java
/home/ahmed/app/hadoop-2.7.2-src/hadoop-hdfs-project/hadoop-hdfs/src/main/java/org/apache/hadoop/hdfs/tools/offlineImageViewer/DelimitedImageVisitor.java
/home/ahmed/app/hadoop-2.7.2-src/hadoop-hdfs-project/hadoop-hdfs/src/main/java/org/apache/hadoop/hdfs/tools/offlineImageViewer/DepthCounter.java
/home/ahmed/app/hadoop-2.7.2-src/hadoop-hdfs-project/hadoop-hdfs/src/main/java/org/apache/hadoop/hdfs/protocol/EncryptionZone.java
/home/ahmed/app/hadoop-2.7.2-src/hadoop-hdfs-project/hadoop-hdfs/src/main/java/org/apache/hadoop/hdfs/server/datanode/fsdataset/impl/BlockPoolSlice.java
/home/ahmed/app/hadoop-2.7.2-src/hadoop-hdfs-project/hadoop-hdfs/src/main/java/org/apache/hadoop/hdfs/server/namenode/FSEditLog.java
/home/ahmed/app/hadoop-2.7.2-src/hadoop-hdfs-project/hadoop-hdfs/src/main/java/org/apache/hadoop/hdfs/protocolPB/DatanodeProtocolPB.java
/home/ahmed/app/hadoop-2.7.2-src/hadoop-hdfs-project/hadoop-hdfs/src/main/java/org/apache/hadoop/hdfs/server/namenode/SafeModeException.java
/home/ahmed/app/hadoop-2.7.2-src/hadoop-hdfs-project/hadoop-hdfs/src/main/java/org/apache/hadoop/hdfs/web/resources/TokenKindParam.java
/home/ahmed/app/hadoop-2.7.2-src/hadoop-hdfs-project/hadoop-hdfs/src/main/java/org/apache/hadoop/hdfs/server/datanode/fsdataset/impl/FsDatasetAsyncDiskService.java
/home/ahmed/app/hadoop-2.7.2-src/hadoop-hdfs-project/hadoop-hdfs/src/main/java/org/apache/hadoop/hdfs/server/namenode/FSImageFormat.java
/home/ahmed/app/hadoop-2.7.2-src/hadoop-hdfs-project/hadoop-hdfs/src/main/java/org/apache/hadoop/hdfs/web/resources/RenewerParam.java
/home/ahmed/app/hadoop-2.7.2-src/hadoop-hdfs-project/hadoop-hdfs/src/main/java/org/apache/hadoop/hdfs/server/namenode/NameNodeStatusMXBean.java
/home/ahmed/app/hadoop-2.7.2-src/hadoop-hdfs-project/hadoop-hdfs/src/main/java/org/apache/hadoop/hdfs/server/protocol/NNHAStatusHeartbeat.java
/home/ahmed/app/hadoop-2.7.2-src/hadoop-hdfs-project/hadoop-hdfs/src/main/java/org/apache/hadoop/hdfs/qjournal/server/JNStorage.java
/home/ahmed/app/hadoop-2.7.2-src/hadoop-hdfs-project/hadoop-hdfs/src/main/java/org/apache/hadoop/hdfs/server/namenode/FSDirAclOp.java
/home/ahmed/app/hadoop-2.7.2-src/hadoop-hdfs-project/hadoop-hdfs/src/main/java/org/apache/hadoop/hdfs/client/HdfsDataOutputStream.java
/home/ahmed/app/hadoop-2.7.2-src/hadoop-hdfs-project/hadoop-hdfs/src/main/java/org/apache/hadoop/hdfs/server/datanode/web/webhdfs/WebHdfsHandler.java
/home/ahmed/app/hadoop-2.7.2-src/hadoop-hdfs-project/hadoop-hdfs/src/main/java/org/apache/hadoop/hdfs/shortcircuit/DfsClientShm.java
/home/ahmed/app/hadoop-2.7.2-src/hadoop-hdfs-project/hadoop-hdfs/src/main/java/org/apache/hadoop/hdfs/server/namenode/FileDataServlet.java
/home/ahmed/app/hadoop-2.7.2-src/hadoop-hdfs-project/hadoop-hdfs/src/main/java/org/apache/hadoop/hdfs/web/resources/ShortParam.java
/home/ahmed/app/hadoop-2.7.2-src/hadoop-hdfs-project/hadoop-hdfs/src/main/java/org/apache/hadoop/hdfs/BlockReaderFactory.java
/home/ahmed/app/hadoop-2.7.2-src/hadoop-hdfs-project/hadoop-hdfs/src/main/java/org/apache/hadoop/hdfs/KeyProviderCache.java
/home/ahmed/app/hadoop-2.7.2-src/hadoop-hdfs-project/hadoop-hdfs/src/main/java/org/apache/hadoop/hdfs/tools/offlineImageViewer/IndentedImageVisitor.java
/home/ahmed/app/hadoop-2.7.2-src/hadoop-hdfs-project/hadoop-hdfs/src/main/java/org/apache/hadoop/hdfs/ExtendedBlockId.java
/home/ahmed/app/hadoop-2.7.2-src/hadoop-hdfs-project/hadoop-hdfs/src/main/java/org/apache/hadoop/hdfs/DFSClientFaultInjector.java
/home/ahmed/app/hadoop-2.7.2-src/hadoop-hdfs-project/hadoop-hdfs/src/main/java/org/apache/hadoop/hdfs/server/datanode/DataXceiverServer.java
/home/ahmed/app/hadoop-2.7.2-src/hadoop-hdfs-project/hadoop-hdfs/src/main/java/org/apache/hadoop/hdfs/server/datanode/fsdataset/VolumeChoosingPolicy.java
/home/ahmed/app/hadoop-2.7.2-src/hadoop-hdfs-project/hadoop-hdfs/target/generated-sources/java/org/apache/hadoop/hdfs/protocol/proto/InterDatanodeProtocolProtos.java
/home/ahmed/app/hadoop-2.7.2-src/hadoop-hdfs-project/hadoop-hdfs/src/main/java/org/apache/hadoop/hdfs/tools/offlineImageViewer/FileDistributionCalculator.java
/home/ahmed/app/hadoop-2.7.2-src/hadoop-hdfs-project/hadoop-hdfs/target/generated-sources/java/org/apache/hadoop/hdfs/protocol/proto/ClientNamenodeProtocolProtos.java
/home/ahmed/app/hadoop-2.7.2-src/hadoop-hdfs-project/hadoop-hdfs/src/main/java/org/apache/hadoop/hdfs/security/token/block/BlockTokenSelector.java
/home/ahmed/app/hadoop-2.7.2-src/hadoop-hdfs-project/hadoop-hdfs/src/main/java/org/apache/hadoop/hdfs/web/resources/BlockSizeParam.java
/home/ahmed/app/hadoop-2.7.2-src/hadoop-hdfs-project/hadoop-hdfs/src/main/java/org/apache/hadoop/hdfs/server/namenode/LeaseManager.java
/home/ahmed/app/hadoop-2.7.2-src/hadoop-hdfs-project/hadoop-hdfs/src/main/java/org/apache/hadoop/hdfs/web/resources/EnumParam.java
/home/ahmed/app/hadoop-2.7.2-src/hadoop-hdfs-project/hadoop-hdfs/src/main/java/org/apache/hadoop/hdfs/util/EnumDoubles.java
/home/ahmed/app/hadoop-2.7.2-src/hadoop-hdfs-project/hadoop-hdfs/src/main/java/org/apache/hadoop/hdfs/qjournal/server/JournalNodeHttpServer.java
/home/ahmed/app/hadoop-2.7.2-src/hadoop-hdfs-project/hadoop-hdfs/src/main/java/org/apache/hadoop/hdfs/server/namenode/HdfsAuditLogger.java
/home/ahmed/app/hadoop-2.7.2-src/hadoop-hdfs-project/hadoop-hdfs/src/main/java/org/apache/hadoop/hdfs/server/namenode/CacheManager.java
/home/ahmed/app/hadoop-2.7.2-src/hadoop-hdfs-project/hadoop-hdfs/src/main/java/org/apache/hadoop/hdfs/server/namenode/NameNodeResourcePolicy.java
/home/ahmed/app/hadoop-2.7.2-src/hadoop-hdfs-project/hadoop-hdfs/src/main/java/org/apache/hadoop/hdfs/client/HdfsDataInputStream.java
/home/ahmed/app/hadoop-2.7.2-src/hadoop-hdfs-project/hadoop-hdfs/src/main/java/org/apache/hadoop/hdfs/server/datanode/BlockMetadataHeader.java
/home/ahmed/app/hadoop-2.7.2-src/hadoop-hdfs-project/hadoop-hdfs/src/main/java/org/apache/hadoop/hdfs/web/resources/UserParam.java
/home/ahmed/app/hadoop-2.7.2-src/hadoop-hdfs-project/hadoop-hdfs/src/main/java/org/apache/hadoop/hdfs/security/token/block/BlockPoolTokenSecretManager.java
/home/ahmed/app/hadoop-2.7.2-src/hadoop-hdfs-project/hadoop-hdfs/src/main/java/org/apache/hadoop/hdfs/server/namenode/NameNodeMXBean.java
/home/ahmed/app/hadoop-2.7.2-src/hadoop-hdfs-project/hadoop-hdfs/src/main/java/org/apache/hadoop/hdfs/server/namenode/AclTransformation.java
/home/ahmed/app/hadoop-2.7.2-src/hadoop-hdfs-project/hadoop-hdfs/src/main/java/org/apache/hadoop/hdfs/server/balancer/NameNodeConnector.java
/home/ahmed/app/hadoop-2.7.2-src/hadoop-hdfs-project/hadoop-hdfs/src/main/java/org/apache/hadoop/hdfs/server/namenode/startupprogress/Status.java
/home/ahmed/app/hadoop-2.7.2-src/hadoop-hdfs-project/hadoop-hdfs/src/main/java/org/apache/hadoop/hdfs/server/namenode/INodeAttributes.java
/home/ahmed/app/hadoop-2.7.2-src/hadoop-hdfs-project/hadoop-hdfs/src/main/java/org/apache/hadoop/hdfs/util/ByteArrayManager.java
/home/ahmed/app/hadoop-2.7.2-src/hadoop-hdfs-project/hadoop-hdfs/src/main/java/org/apache/hadoop/hdfs/server/namenode/NNStorageRetentionManager.java
/home/ahmed/app/hadoop-2.7.2-src/hadoop-hdfs-project/hadoop-hdfs/src/main/java/org/apache/hadoop/hdfs/server/namenode/INodeMap.java
/home/ahmed/app/hadoop-2.7.2-src/hadoop-hdfs-project/hadoop-hdfs/src/main/java/org/apache/hadoop/hdfs/tools/HDFSConcat.java
/home/ahmed/app/hadoop-2.7.2-src/hadoop-hdfs-project/hadoop-hdfs/src/main/java/org/apache/hadoop/hdfs/server/namenode/FSImagePreTransactionalStorageInspector.java
/home/ahmed/app/hadoop-2.7.2-src/hadoop-hdfs-project/hadoop-hdfs/src/main/java/org/apache/hadoop/hdfs/server/datanode/ChunkChecksum.java
/home/ahmed/app/hadoop-2.7.2-src/hadoop-hdfs-project/hadoop-hdfs/src/main/java/org/apache/hadoop/hdfs/net/EncryptedPeer.java
/home/ahmed/app/hadoop-2.7.2-src/hadoop-hdfs-project/hadoop-hdfs/src/main/java/org/apache/hadoop/hdfs/server/blockmanagement/DatanodeStatistics.java
/home/ahmed/app/hadoop-2.7.2-src/hadoop-hdfs-project/hadoop-hdfs/src/main/java/org/apache/hadoop/hdfs/server/namenode/ha/WrappedFailoverProxyProvider.java
/home/ahmed/app/hadoop-2.7.2-src/hadoop-hdfs-project/hadoop-hdfs/src/main/java/org/apache/hadoop/hdfs/server/namenode/snapshot/FileWithSnapshotFeature.java
/home/ahmed/app/hadoop-2.7.2-src/hadoop-hdfs-project/hadoop-hdfs/src/main/java/org/apache/hadoop/hdfs/DFSInputStream.java
/home/ahmed/app/hadoop-2.7.2-src/hadoop-hdfs-project/hadoop-hdfs/src/main/java/org/apache/hadoop/hdfs/server/datanode/ShortCircuitRegistry.java
/home/ahmed/app/hadoop-2.7.2-src/hadoop-hdfs-project/hadoop-hdfs/src/main/java/org/apache/hadoop/hdfs/tools/offlineImageViewer/PBImageDelimitedTextWriter.java
/home/ahmed/app/hadoop-2.7.2-src/hadoop-hdfs-project/hadoop-hdfs/src/main/java/org/apache/hadoop/hdfs/server/namenode/TransferFsImage.java
/home/ahmed/app/hadoop-2.7.2-src/hadoop-hdfs-project/hadoop-hdfs/src/main/java/org/apache/hadoop/hdfs/PeerCache.java
/home/ahmed/app/hadoop-2.7.2-src/hadoop-hdfs-project/hadoop-hdfs/src/main/java/org/apache/hadoop/hdfs/util/ByteArray.java
/home/ahmed/app/hadoop-2.7.2-src/hadoop-hdfs-project/hadoop-hdfs/src/main/java/org/apache/hadoop/hdfs/server/blockmanagement/InvalidateBlocks.java
/home/ahmed/app/hadoop-2.7.2-src/hadoop-hdfs-project/hadoop-hdfs/src/main/java/org/apache/hadoop/hdfs/server/blockmanagement/PendingDataNodeMessages.java
/home/ahmed/app/hadoop-2.7.2-src/hadoop-hdfs-project/hadoop-hdfs/src/main/java/org/apache/hadoop/hdfs/tools/offlineImageViewer/WebImageViewer.java
/home/ahmed/app/hadoop-2.7.2-src/hadoop-hdfs-project/hadoop-hdfs/src/main/java/org/apache/hadoop/hdfs/server/namenode/snapshot/FileDiff.java
/home/ahmed/app/hadoop-2.7.2-src/hadoop-hdfs-project/hadoop-hdfs/src/main/java/org/apache/hadoop/hdfs/server/namenode/web/resources/NamenodeWebHdfsMethods.java
/home/ahmed/app/hadoop-2.7.2-src/hadoop-hdfs-project/hadoop-hdfs/src/main/java/org/apache/hadoop/hdfs/BlockReaderUtil.java
/home/ahmed/app/hadoop-2.7.2-src/hadoop-hdfs-project/hadoop-hdfs/src/main/java/org/apache/hadoop/hdfs/server/blockmanagement/NumberReplicas.java
/home/ahmed/app/hadoop-2.7.2-src/hadoop-hdfs-project/hadoop-hdfs/src/main/java/org/apache/hadoop/hdfs/protocol/AlreadyBeingCreatedException.java
/home/ahmed/app/hadoop-2.7.2-src/hadoop-hdfs-project/hadoop-hdfs/src/main/java/org/apache/hadoop/hdfs/protocolPB/NamenodeProtocolServerSideTranslatorPB.java
/home/ahmed/app/hadoop-2.7.2-src/hadoop-hdfs-project/hadoop-hdfs/src/main/java/org/apache/hadoop/hdfs/web/resources/EnumSetParam.java
/home/ahmed/app/hadoop-2.7.2-src/hadoop-hdfs-project/hadoop-hdfs/src/main/java/org/apache/hadoop/hdfs/server/datanode/metrics/FSDatasetMBean.java
/home/ahmed/app/hadoop-2.7.2-src/hadoop-hdfs-project/hadoop-hdfs/src/main/java/org/apache/hadoop/hdfs/server/datanode/fsdataset/impl/FsDatasetUtil.java
/home/ahmed/app/hadoop-2.7.2-src/hadoop-hdfs-project/hadoop-hdfs/src/main/java/org/apache/hadoop/hdfs/server/namenode/startupprogress/StepType.java
/home/ahmed/app/hadoop-2.7.2-src/hadoop-hdfs-project/hadoop-hdfs/src/main/java/org/apache/hadoop/hdfs/server/namenode/CheckpointConf.java
/home/ahmed/app/hadoop-2.7.2-src/hadoop-hdfs-project/hadoop-hdfs/src/main/java/org/apache/hadoop/hdfs/server/namenode/EditsDoubleBuffer.java
/home/ahmed/app/hadoop-2.7.2-src/hadoop-hdfs-project/hadoop-hdfs/src/main/java/org/apache/hadoop/hdfs/protocol/CacheDirectiveIterator.java
/home/ahmed/app/hadoop-2.7.2-src/hadoop-hdfs-project/hadoop-hdfs/src/main/java/org/apache/hadoop/hdfs/DFSUtil.java
/home/ahmed/app/hadoop-2.7.2-src/hadoop-hdfs-project/hadoop-hdfs/src/main/java/org/apache/hadoop/hdfs/server/namenode/AuditLogger.java
/home/ahmed/app/hadoop-2.7.2-src/hadoop-hdfs-project/hadoop-hdfs/src/main/java/org/apache/hadoop/hdfs/tools/offlineEditsViewer/OfflineEditsLoader.java
/home/ahmed/app/hadoop-2.7.2-src/hadoop-hdfs-project/hadoop-hdfs/src/main/java/org/apache/hadoop/hdfs/server/namenode/snapshot/FileDiffList.java
/home/ahmed/app/hadoop-2.7.2-src/hadoop-hdfs-project/hadoop-hdfs/src/main/java/org/apache/hadoop/hdfs/protocol/FSLimitException.java
/home/ahmed/app/hadoop-2.7.2-src/hadoop-hdfs-project/hadoop-hdfs/src/main/java/org/apache/hadoop/hdfs/inotify/EventBatchList.java
/home/ahmed/app/hadoop-2.7.2-src/hadoop-hdfs-project/hadoop-hdfs/src/main/java/org/apache/hadoop/hdfs/server/datanode/ReplicaAlreadyExistsException.java
/home/ahmed/app/hadoop-2.7.2-src/hadoop-hdfs-project/hadoop-hdfs/src/main/java/org/apache/hadoop/hdfs/protocol/datatransfer/InvalidEncryptionKeyException.java
/home/ahmed/app/hadoop-2.7.2-src/hadoop-hdfs-project/hadoop-hdfs/src/main/java/org/apache/hadoop/hdfs/server/protocol/NodeRegistration.java
/home/ahmed/app/hadoop-2.7.2-src/hadoop-hdfs-project/hadoop-hdfs/src/main/java/org/apache/hadoop/hdfs/server/namenode/ha/ConfiguredFailoverProxyProvider.java
/home/ahmed/app/hadoop-2.7.2-src/hadoop-hdfs-project/hadoop-hdfs/src/main/java/org/apache/hadoop/hdfs/protocol/RollingUpgradeException.java
/home/ahmed/app/hadoop-2.7.2-src/hadoop-hdfs-project/hadoop-hdfs/src/main/java/org/apache/hadoop/hdfs/protocol/SnapshotDiffReport.java
/home/ahmed/app/hadoop-2.7.2-src/hadoop-hdfs-project/hadoop-hdfs/src/main/java/org/apache/hadoop/hdfs/server/namenode/JournalSet.java
/home/ahmed/app/hadoop-2.7.2-src/hadoop-hdfs-project/hadoop-hdfs/src/main/java/org/apache/hadoop/hdfs/web/resources/DelegationParam.java
/home/ahmed/app/hadoop-2.7.2-src/hadoop-hdfs-project/hadoop-hdfs/src/main/java/org/apache/hadoop/hdfs/web/resources/ConcatSourcesParam.java
/home/ahmed/app/hadoop-2.7.2-src/hadoop-hdfs-project/hadoop-hdfs/src/main/java/org/apache/hadoop/hdfs/protocolPB/NamenodeProtocolPB.java
/home/ahmed/app/hadoop-2.7.2-src/hadoop-hdfs-project/hadoop-hdfs/target/generated-sources/java/org/apache/hadoop/hdfs/qjournal/protocol/QJournalProtocolProtos.java
/home/ahmed/app/hadoop-2.7.2-src/hadoop-hdfs-project/hadoop-hdfs/src/main/java/org/apache/hadoop/hdfs/server/protocol/DatanodeProtocol.java
/home/ahmed/app/hadoop-2.7.2-src/hadoop-hdfs-project/hadoop-hdfs/src/main/java/org/apache/hadoop/hdfs/server/namenode/Namesystem.java
/home/ahmed/app/hadoop-2.7.2-src/hadoop-hdfs-project/hadoop-hdfs/src/main/java/org/apache/hadoop/hdfs/server/namenode/top/metrics/TopMetrics.java
/home/ahmed/app/hadoop-2.7.2-src/hadoop-hdfs-project/hadoop-hdfs/src/main/java/org/apache/hadoop/hdfs/protocol/RollingUpgradeInfo.java
/home/ahmed/app/hadoop-2.7.2-src/hadoop-hdfs-project/hadoop-hdfs/src/main/java/org/apache/hadoop/hdfs/qjournal/server/JournalFaultInjector.java
/home/ahmed/app/hadoop-2.7.2-src/hadoop-hdfs-project/hadoop-hdfs/src/main/java/org/apache/hadoop/hdfs/server/namenode/snapshot/Snapshot.java
/home/ahmed/app/hadoop-2.7.2-src/hadoop-hdfs-project/hadoop-hdfs/src/main/java/org/apache/hadoop/hdfs/server/namenode/FileJournalManager.java
/home/ahmed/app/hadoop-2.7.2-src/hadoop-hdfs-project/hadoop-hdfs/src/main/java/org/apache/hadoop/hdfs/server/namenode/top/window/RollingWindowManager.java
/home/ahmed/app/hadoop-2.7.2-src/hadoop-hdfs-project/hadoop-hdfs/src/main/java/org/apache/hadoop/hdfs/server/namenode/INodeFileAttributes.java
/home/ahmed/app/hadoop-2.7.2-src/hadoop-hdfs-project/hadoop-hdfs/src/main/java/org/apache/hadoop/hdfs/web/KerberosUgiAuthenticator.java
/home/ahmed/app/hadoop-2.7.2-src/hadoop-hdfs-project/hadoop-hdfs/src/main/java/org/apache/hadoop/hdfs/web/SWebHdfsFileSystem.java
/home/ahmed/app/hadoop-2.7.2-src/hadoop-hdfs-project/hadoop-hdfs/src/main/java/org/apache/hadoop/hdfs/web/resources/PostOpParam.java
/home/ahmed/app/hadoop-2.7.2-src/hadoop-hdfs-project/hadoop-hdfs/src/main/java/org/apache/hadoop/hdfs/server/datanode/web/SimpleHttpProxyHandler.java
/home/ahmed/app/hadoop-2.7.2-src/hadoop-hdfs-project/hadoop-hdfs/src/main/java/org/apache/hadoop/hdfs/server/blockmanagement/BlockManager.java
/home/ahmed/app/hadoop-2.7.2-src/hadoop-hdfs-project/hadoop-hdfs/src/main/java/org/apache/hadoop/hdfs/server/namenode/INodeId.java
/home/ahmed/app/hadoop-2.7.2-src/hadoop-hdfs-project/hadoop-hdfs/src/main/java/org/apache/hadoop/hdfs/server/protocol/DatanodeStorage.java
/home/ahmed/app/hadoop-2.7.2-src/hadoop-hdfs-project/hadoop-hdfs/src/main/java/org/apache/hadoop/hdfs/tools/StoragePolicyAdmin.java
/home/ahmed/app/hadoop-2.7.2-src/hadoop-hdfs-project/hadoop-hdfs/src/main/java/org/apache/hadoop/hdfs/web/resources/DoAsParam.java
/home/ahmed/app/hadoop-2.7.2-src/hadoop-hdfs-project/hadoop-hdfs/src/main/java/org/apache/hadoop/hdfs/server/blockmanagement/DatanodeStorageInfo.java
/home/ahmed/app/hadoop-2.7.2-src/hadoop-hdfs-project/hadoop-hdfs/src/main/java/org/apache/hadoop/hdfs/server/balancer/BalancingPolicy.java
/home/ahmed/app/hadoop-2.7.2-src/hadoop-hdfs-project/hadoop-hdfs/src/main/java/org/apache/hadoop/hdfs/server/protocol/BlockRecoveryCommand.java
/home/ahmed/app/hadoop-2.7.2-src/hadoop-hdfs-project/hadoop-hdfs/src/main/java/org/apache/hadoop/hdfs/web/resources/ExcludeDatanodesParam.java
/home/ahmed/app/hadoop-2.7.2-src/hadoop-hdfs-project/hadoop-hdfs/src/main/java/org/apache/hadoop/hdfs/protocol/NSQuotaExceededException.java
/home/ahmed/app/hadoop-2.7.2-src/hadoop-hdfs-project/hadoop-hdfs/src/main/java/org/apache/hadoop/hdfs/protocolPB/DatanodeProtocolServerSideTranslatorPB.java
/home/ahmed/app/hadoop-2.7.2-src/hadoop-hdfs-project/hadoop-hdfs/src/main/java/org/apache/hadoop/hdfs/util/LightWeightHashSet.java
/home/ahmed/app/hadoop-2.7.2-src/hadoop-hdfs-project/hadoop-hdfs/src/main/java/org/apache/hadoop/hdfs/util/XMLUtils.java
/home/ahmed/app/hadoop-2.7.2-src/hadoop-hdfs-project/hadoop-hdfs/src/main/java/org/apache/hadoop/hdfs/server/datanode/fsdataset/impl/RamDiskReplicaTracker.java
/home/ahmed/app/hadoop-2.7.2-src/hadoop-hdfs-project/hadoop-hdfs/src/main/java/org/apache/hadoop/hdfs/protocol/HdfsConstants.java
/home/ahmed/app/hadoop-2.7.2-src/hadoop-hdfs-project/hadoop-hdfs/src/main/java/org/apache/hadoop/hdfs/tools/JMXGet.java
/home/ahmed/app/hadoop-2.7.2-src/hadoop-hdfs-project/hadoop-hdfs/src/main/java/org/apache/hadoop/hdfs/server/namenode/ContentSummaryServlet.java
/home/ahmed/app/hadoop-2.7.2-src/hadoop-hdfs-project/hadoop-hdfs/src/main/java/org/apache/hadoop/hdfs/web/resources/PermissionParam.java
/home/ahmed/app/hadoop-2.7.2-src/hadoop-hdfs-project/hadoop-hdfs/src/main/java/org/apache/hadoop/hdfs/server/protocol/StorageReport.java
/home/ahmed/app/hadoop-2.7.2-src/hadoop-hdfs-project/hadoop-hdfs/src/main/java/org/apache/hadoop/hdfs/server/datanode/fsdataset/impl/FsDatasetFactory.java
/home/ahmed/app/hadoop-2.7.2-src/hadoop-hdfs-project/hadoop-hdfs/src/main/java/org/apache/hadoop/hdfs/server/namenode/startupprogress/Step.java
/home/ahmed/app/hadoop-2.7.2-src/hadoop-hdfs-project/hadoop-hdfs/src/main/java/org/apache/hadoop/hdfs/protocol/QuotaByStorageTypeExceededException.java
/home/ahmed/app/hadoop-2.7.2-src/hadoop-hdfs-project/hadoop-hdfs/src/main/java/org/apache/hadoop/hdfs/server/namenode/NamenodeFsck.java
/home/ahmed/app/hadoop-2.7.2-src/hadoop-hdfs-project/hadoop-hdfs/src/main/java/org/apache/hadoop/hdfs/security/token/block/BlockTokenIdentifier.java
/home/ahmed/app/hadoop-2.7.2-src/hadoop-hdfs-project/hadoop-hdfs/src/main/java/org/apache/hadoop/hdfs/server/namenode/SecondaryNameNodeInfoMXBean.java
/home/ahmed/app/hadoop-2.7.2-src/hadoop-hdfs-project/hadoop-hdfs/src/main/java/org/apache/hadoop/hdfs/HDFSPolicyProvider.java
/home/ahmed/app/hadoop-2.7.2-src/hadoop-hdfs-project/hadoop-hdfs/src/main/java/org/apache/hadoop/hdfs/shortcircuit/DfsClientShmManager.java
/home/ahmed/app/hadoop-2.7.2-src/hadoop-hdfs-project/hadoop-hdfs/src/main/java/org/apache/hadoop/hdfs/LeaseRenewer.java
/home/ahmed/app/hadoop-2.7.2-src/hadoop-hdfs-project/hadoop-hdfs/src/main/java/org/apache/hadoop/hdfs/server/datanode/BlockSender.java
/home/ahmed/app/hadoop-2.7.2-src/hadoop-hdfs-project/hadoop-hdfs/src/main/java/org/apache/hadoop/hdfs/server/namenode/XAttrStorage.java
/home/ahmed/app/hadoop-2.7.2-src/hadoop-hdfs-project/hadoop-hdfs/src/main/java/org/apache/hadoop/hdfs/util/ExactSizeInputStream.java
/home/ahmed/app/hadoop-2.7.2-src/hadoop-hdfs-project/hadoop-hdfs/src/main/java/org/apache/hadoop/hdfs/util/MD5FileUtils.java
/home/ahmed/app/hadoop-2.7.2-src/hadoop-hdfs-project/hadoop-hdfs/src/main/java/org/apache/hadoop/hdfs/server/protocol/DatanodeStorageReport.java
/home/ahmed/app/hadoop-2.7.2-src/hadoop-hdfs-project/hadoop-hdfs/src/main/java/org/apache/hadoop/hdfs/protocol/datatransfer/ReplaceDatanodeOnFailure.java
/home/ahmed/app/hadoop-2.7.2-src/hadoop-hdfs-project/hadoop-hdfs/src/main/java/org/apache/hadoop/hdfs/HAUtil.java
/home/ahmed/app/hadoop-2.7.2-src/hadoop-hdfs-project/hadoop-hdfs/src/main/java/org/apache/hadoop/hdfs/web/AuthFilter.java
/home/ahmed/app/hadoop-2.7.2-src/hadoop-hdfs-project/hadoop-hdfs/src/main/java/org/apache/hadoop/hdfs/server/common/HdfsServerConstants.java
/home/ahmed/app/hadoop-2.7.2-src/hadoop-hdfs-project/hadoop-hdfs/src/main/java/org/apache/hadoop/hdfs/server/datanode/fsdataset/impl/ReplicaMap.java
/home/ahmed/app/hadoop-2.7.2-src/hadoop-hdfs-project/hadoop-hdfs/src/main/java/org/apache/hadoop/hdfs/server/namenode/SecondaryNameNode.java
/home/ahmed/app/hadoop-2.7.2-src/hadoop-hdfs-project/hadoop-hdfs/src/main/java/org/apache/hadoop/hdfs/server/namenode/QuotaCounts.java
/home/ahmed/app/hadoop-2.7.2-src/hadoop-hdfs-project/hadoop-hdfs/src/main/java/org/apache/hadoop/hdfs/tools/offlineImageViewer/FSImageHandler.java
/home/ahmed/app/hadoop-2.7.2-src/hadoop-hdfs-project/hadoop-hdfs/src/main/java/org/apache/hadoop/hdfs/protocolPB/ClientNamenodeProtocolTranslatorPB.java
/home/ahmed/app/hadoop-2.7.2-src/hadoop-hdfs-project/hadoop-hdfs/src/main/java/org/apache/hadoop/hdfs/tools/DFSck.java
/home/ahmed/app/hadoop-2.7.2-src/hadoop-hdfs-project/hadoop-hdfs/src/main/java/org/apache/hadoop/hdfs/protocol/LocatedBlocks.java
/home/ahmed/app/hadoop-2.7.2-src/hadoop-hdfs-project/hadoop-hdfs/src/main/java/org/apache/hadoop/hdfs/util/Holder.java
/home/ahmed/app/hadoop-2.7.2-src/hadoop-hdfs-project/hadoop-hdfs/src/main/java/org/apache/hadoop/hdfs/web/resources/CreateParentParam.java
/home/ahmed/app/hadoop-2.7.2-src/hadoop-hdfs-project/hadoop-hdfs/src/main/java/org/apache/hadoop/hdfs/server/namenode/FSImage.java
/home/ahmed/app/hadoop-2.7.2-src/hadoop-hdfs-project/hadoop-hdfs/src/main/java/org/apache/hadoop/hdfs/server/protocol/RegisterCommand.java
/home/ahmed/app/hadoop-2.7.2-src/hadoop-hdfs-project/hadoop-hdfs/src/main/java/org/apache/hadoop/hdfs/protocol/ClientProtocol.java
/home/ahmed/app/hadoop-2.7.2-src/hadoop-hdfs-project/hadoop-hdfs/src/main/java/org/apache/hadoop/hdfs/BlockReaderLocal.java
/home/ahmed/app/hadoop-2.7.2-src/hadoop-hdfs-project/hadoop-hdfs/src/main/java/org/apache/hadoop/hdfs/server/namenode/NameNodeHttpServer.java
/home/ahmed/app/hadoop-2.7.2-src/hadoop-hdfs-project/hadoop-hdfs/src/main/java/org/apache/hadoop/hdfs/server/namenode/ha/IPFailoverProxyProvider.java
/home/ahmed/app/hadoop-2.7.2-src/hadoop-hdfs-project/hadoop-hdfs/src/main/java/org/apache/hadoop/hdfs/server/namenode/AclStorage.java
/home/ahmed/app/hadoop-2.7.2-src/hadoop-hdfs-project/hadoop-hdfs/src/main/java/org/apache/hadoop/hdfs/protocol/AclException.java
/home/ahmed/app/hadoop-2.7.2-src/hadoop-hdfs-project/hadoop-hdfs/src/main/java/org/apache/hadoop/hdfs/server/datanode/web/DatanodeHttpServer.java
/home/ahmed/app/hadoop-2.7.2-src/hadoop-hdfs-project/hadoop-hdfs/src/main/java/org/apache/hadoop/hdfs/server/common/StorageErrorReporter.java
/home/ahmed/app/hadoop-2.7.2-src/hadoop-hdfs-project/hadoop-hdfs/src/main/java/org/apache/hadoop/hdfs/server/namenode/FSDirSymlinkOp.java
/home/ahmed/app/hadoop-2.7.2-src/hadoop-hdfs-project/hadoop-hdfs/src/main/java/org/apache/hadoop/hdfs/server/namenode/INodeDirectoryAttributes.java
/home/ahmed/app/hadoop-2.7.2-src/hadoop-hdfs-project/hadoop-hdfs/src/main/java/org/apache/hadoop/hdfs/server/namenode/ListPathsServlet.java
/home/ahmed/app/hadoop-2.7.2-src/hadoop-hdfs-project/hadoop-hdfs/src/main/java/org/apache/hadoop/hdfs/tools/offlineEditsViewer/OfflineEditsViewer.java
/home/ahmed/app/hadoop-2.7.2-src/hadoop-hdfs-project/hadoop-hdfs/src/main/java/org/apache/hadoop/fs/HdfsVolumeId.java
/home/ahmed/app/hadoop-2.7.2-src/hadoop-hdfs-project/hadoop-hdfs/src/main/java/org/apache/hadoop/hdfs/server/datanode/DataNodeFaultInjector.java
/home/ahmed/app/hadoop-2.7.2-src/hadoop-hdfs-project/hadoop-hdfs/src/main/java/org/apache/hadoop/hdfs/server/namenode/XAttrPermissionFilter.java
/home/ahmed/app/hadoop-2.7.2-src/hadoop-hdfs-project/hadoop-hdfs/src/main/java/org/apache/hadoop/hdfs/XAttrHelper.java
/home/ahmed/app/hadoop-2.7.2-src/hadoop-hdfs-project/hadoop-hdfs/src/main/java/org/apache/hadoop/hdfs/server/namenode/CheckpointSignature.java
/home/ahmed/app/hadoop-2.7.2-src/hadoop-hdfs-project/hadoop-hdfs/src/main/java/org/apache/hadoop/hdfs/DFSConfigKeys.java
/home/ahmed/app/hadoop-2.7.2-src/hadoop-hdfs-project/hadoop-hdfs/src/main/java/org/apache/hadoop/hdfs/server/namenode/ha/AbstractNNFailoverProxyProvider.java
/home/ahmed/app/hadoop-2.7.2-src/hadoop-hdfs-project/hadoop-hdfs/src/main/java/org/apache/hadoop/hdfs/protocol/datatransfer/sasl/DataTransferSaslUtil.java
/home/ahmed/app/hadoop-2.7.2-src/hadoop-hdfs-project/hadoop-hdfs/src/main/java/org/apache/hadoop/hdfs/server/balancer/Dispatcher.java
/home/ahmed/app/hadoop-2.7.2-src/hadoop-hdfs-project/hadoop-hdfs/src/main/java/org/apache/hadoop/hdfs/server/namenode/startupprogress/Phase.java
/home/ahmed/app/hadoop-2.7.2-src/hadoop-hdfs-project/hadoop-hdfs/src/main/java/org/apache/hadoop/hdfs/protocolPB/InterDatanodeProtocolServerSideTranslatorPB.java
/home/ahmed/app/hadoop-2.7.2-src/hadoop-hdfs-project/hadoop-hdfs/src/main/java/org/apache/hadoop/hdfs/tools/offlineImageViewer/NameDistributionVisitor.java
/home/ahmed/app/hadoop-2.7.2-src/hadoop-hdfs-project/hadoop-hdfs/src/main/java/org/apache/hadoop/hdfs/server/namenode/EditLogFileInputStream.java
/home/ahmed/app/hadoop-2.7.2-src/hadoop-hdfs-project/hadoop-hdfs/src/main/java/org/apache/hadoop/hdfs/web/resources/DestinationParam.java
/home/ahmed/app/hadoop-2.7.2-src/hadoop-hdfs-project/hadoop-hdfs/src/main/java/org/apache/hadoop/hdfs/HdfsConfiguration.java
/home/ahmed/app/hadoop-2.7.2-src/hadoop-hdfs-project/hadoop-hdfs/src/main/java/org/apache/hadoop/hdfs/server/namenode/FSDirSnapshotOp.java
/home/ahmed/app/hadoop-2.7.2-src/hadoop-hdfs-project/hadoop-hdfs/src/main/java/org/apache/hadoop/hdfs/web/resources/RenameOptionSetParam.java
/home/ahmed/app/hadoop-2.7.2-src/hadoop-hdfs-project/hadoop-hdfs/src/main/java/org/apache/hadoop/hdfs/server/blockmanagement/HostFileManager.java
/home/ahmed/app/hadoop-2.7.2-src/hadoop-hdfs-project/hadoop-hdfs/src/main/java/org/apache/hadoop/hdfs/server/namenode/top/TopConf.java
/home/ahmed/app/hadoop-2.7.2-src/hadoop-hdfs-project/hadoop-hdfs/src/main/java/org/apache/hadoop/hdfs/server/blockmanagement/BlockStoragePolicySuite.java
/home/ahmed/app/hadoop-2.7.2-src/hadoop-hdfs-project/hadoop-hdfs/src/main/java/org/apache/hadoop/hdfs/ClientContext.java
/home/ahmed/app/hadoop-2.7.2-src/hadoop-hdfs-project/hadoop-hdfs/src/main/java/org/apache/hadoop/hdfs/server/protocol/BlockReportContext.java
/home/ahmed/app/hadoop-2.7.2-src/hadoop-hdfs-project/hadoop-hdfs/src/main/java/org/apache/hadoop/hdfs/protocol/DSQuotaExceededException.java
/home/ahmed/app/hadoop-2.7.2-src/hadoop-hdfs-project/hadoop-hdfs/src/main/java/org/apache/hadoop/hdfs/web/resources/UserProvider.java
/home/ahmed/app/hadoop-2.7.2-src/hadoop-hdfs-project/hadoop-hdfs/src/main/java/org/apache/hadoop/hdfs/server/namenode/Checkpointer.java
/home/ahmed/app/hadoop-2.7.2-src/hadoop-hdfs-project/hadoop-hdfs/src/main/java/org/apache/hadoop/hdfs/tools/DFSAdmin.java
/home/ahmed/app/hadoop-2.7.2-src/hadoop-hdfs-project/hadoop-hdfs/src/main/java/org/apache/hadoop/hdfs/server/namenode/SerialNumberManager.java
/home/ahmed/app/hadoop-2.7.2-src/hadoop-hdfs-project/hadoop-hdfs/src/main/java/org/apache/hadoop/hdfs/protocol/DatanodeLocalInfo.java
/home/ahmed/app/hadoop-2.7.2-src/hadoop-hdfs-project/hadoop-hdfs/src/main/java/org/apache/hadoop/hdfs/server/balancer/Balancer.java
/home/ahmed/app/hadoop-2.7.2-src/hadoop-hdfs-project/hadoop-hdfs/src/main/java/org/apache/hadoop/hdfs/web/resources/IntegerParam.java
/home/ahmed/app/hadoop-2.7.2-src/hadoop-hdfs-project/hadoop-hdfs/src/main/java/org/apache/hadoop/hdfs/tools/CacheAdmin.java
/home/ahmed/app/hadoop-2.7.2-src/hadoop-hdfs-project/hadoop-hdfs/src/main/java/org/apache/hadoop/hdfs/server/namenode/StartupProgressServlet.java
/home/ahmed/app/hadoop-2.7.2-src/hadoop-hdfs-project/hadoop-hdfs/src/main/java/org/apache/hadoop/hdfs/server/namenode/QuotaByStorageTypeEntry.java
/home/ahmed/app/hadoop-2.7.2-src/hadoop-hdfs-project/hadoop-hdfs/src/main/java/org/apache/hadoop/hdfs/server/common/Storage.java
/home/ahmed/app/hadoop-2.7.2-src/hadoop-hdfs-project/hadoop-hdfs/src/main/java/org/apache/hadoop/hdfs/server/namenode/startupprogress/AbstractTracking.java
/home/ahmed/app/hadoop-2.7.2-src/hadoop-hdfs-project/hadoop-hdfs/src/main/java/org/apache/hadoop/hdfs/protocol/datatransfer/Receiver.java
/home/ahmed/app/hadoop-2.7.2-src/hadoop-hdfs-project/hadoop-hdfs/src/main/java/org/apache/hadoop/hdfs/DistributedFileSystem.java
/home/ahmed/app/hadoop-2.7.2-src/hadoop-hdfs-project/hadoop-hdfs/target/generated-sources/java/org/apache/hadoop/hdfs/protocol/proto/DataTransferProtos.java
/home/ahmed/app/hadoop-2.7.2-src/hadoop-hdfs-project/hadoop-hdfs/src/main/java/org/apache/hadoop/hdfs/RemoteBlockReader2.java
/home/ahmed/app/hadoop-2.7.2-src/hadoop-hdfs-project/hadoop-hdfs/src/main/java/org/apache/hadoop/hdfs/util/PersistentLongFile.java
/home/ahmed/app/hadoop-2.7.2-src/hadoop-hdfs-project/hadoop-hdfs/src/main/java/org/apache/hadoop/hdfs/qjournal/client/LoggerTooFarBehindException.java
/home/ahmed/app/hadoop-2.7.2-src/hadoop-hdfs-project/hadoop-hdfs/src/main/java/org/apache/hadoop/hdfs/server/protocol/ServerCommand.java
/home/ahmed/app/hadoop-2.7.2-src/hadoop-hdfs-project/hadoop-hdfs/src/main/java/org/apache/hadoop/hdfs/RemoteBlockReader.java
/home/ahmed/app/hadoop-2.7.2-src/hadoop-hdfs-project/hadoop-hdfs/src/main/java/org/apache/hadoop/hdfs/server/datanode/VolumeScanner.java
/home/ahmed/app/hadoop-2.7.2-src/hadoop-hdfs-project/hadoop-hdfs/src/main/java/org/apache/hadoop/hdfs/web/resources/SnapshotNameParam.java
/home/ahmed/app/hadoop-2.7.2-src/hadoop-hdfs-project/hadoop-hdfs/src/main/java/org/apache/hadoop/hdfs/web/resources/ReplicationParam.java
/home/ahmed/app/hadoop-2.7.2-src/hadoop-hdfs-project/hadoop-hdfs/src/main/java/org/apache/hadoop/hdfs/server/namenode/DefaultINodeAttributesProvider.java
/home/ahmed/app/hadoop-2.7.2-src/hadoop-hdfs-project/hadoop-hdfs/src/main/java/org/apache/hadoop/hdfs/server/namenode/CachedBlock.java
/home/ahmed/app/hadoop-2.7.2-src/hadoop-hdfs-project/hadoop-hdfs/src/main/java/org/apache/hadoop/hdfs/server/protocol/FencedException.java
/home/ahmed/app/hadoop-2.7.2-src/hadoop-hdfs-project/hadoop-hdfs/src/main/java/org/apache/hadoop/hdfs/util/AtomicFileOutputStream.java
/home/ahmed/app/hadoop-2.7.2-src/hadoop-hdfs-project/hadoop-hdfs/src/main/java/org/apache/hadoop/hdfs/protocol/datatransfer/sasl/SaslDataTransferClient.java
/home/ahmed/app/hadoop-2.7.2-src/hadoop-hdfs-project/hadoop-hdfs/src/main/java/org/apache/hadoop/hdfs/web/resources/ExceptionHandler.java
/home/ahmed/app/hadoop-2.7.2-src/hadoop-hdfs-project/hadoop-hdfs/src/main/java/org/apache/hadoop/hdfs/server/namenode/FSEditLogLoader.java
/home/ahmed/app/hadoop-2.7.2-src/hadoop-hdfs-project/hadoop-hdfs/src/main/java/org/apache/hadoop/hdfs/server/blockmanagement/BlocksMap.java
/home/ahmed/app/hadoop-2.7.2-src/hadoop-hdfs-project/hadoop-hdfs/src/main/java/org/apache/hadoop/hdfs/server/datanode/fsdataset/impl/VolumeFailureInfo.java
/home/ahmed/app/hadoop-2.7.2-src/hadoop-hdfs-project/hadoop-hdfs/src/main/java/org/apache/hadoop/hdfs/net/PeerServer.java
/home/ahmed/app/hadoop-2.7.2-src/hadoop-hdfs-project/hadoop-hdfs/src/main/java/org/apache/hadoop/hdfs/BlockStorageLocationUtil.java
/home/ahmed/app/hadoop-2.7.2-src/hadoop-hdfs-project/hadoop-hdfs/src/main/java/org/apache/hadoop/hdfs/server/protocol/DatanodeRegistration.java
/home/ahmed/app/hadoop-2.7.2-src/hadoop-hdfs-project/hadoop-hdfs/src/main/java/org/apache/hadoop/hdfs/server/namenode/snapshot/SnapshotDiffInfo.java
/home/ahmed/app/hadoop-2.7.2-src/hadoop-hdfs-project/hadoop-hdfs/src/main/java/org/apache/hadoop/hdfs/web/resources/ModificationTimeParam.java
/home/ahmed/app/hadoop-2.7.2-src/hadoop-hdfs-project/hadoop-hdfs/src/main/java/org/apache/hadoop/hdfs/protocol/EncryptionZoneIterator.java
/home/ahmed/app/hadoop-2.7.2-src/hadoop-hdfs-project/hadoop-hdfs/src/main/java/org/apache/hadoop/hdfs/web/HftpFileSystem.java
/home/ahmed/app/hadoop-2.7.2-src/hadoop-hdfs-project/hadoop-hdfs/src/main/java/org/apache/hadoop/hdfs/server/namenode/FSDirDeleteOp.java
/home/ahmed/app/hadoop-2.7.2-src/hadoop-hdfs-project/hadoop-hdfs/src/main/java/org/apache/hadoop/hdfs/server/datanode/DirectoryScanner.java
/home/ahmed/app/hadoop-2.7.2-src/hadoop-hdfs-project/hadoop-hdfs/src/main/java/org/apache/hadoop/hdfs/tools/DFSHAAdmin.java
/home/ahmed/app/hadoop-2.7.2-src/hadoop-hdfs-project/hadoop-hdfs/src/main/java/org/apache/hadoop/hdfs/server/namenode/FSDirConcatOp.java
/home/ahmed/app/hadoop-2.7.2-src/hadoop-hdfs-project/hadoop-hdfs/src/main/java/org/apache/hadoop/hdfs/server/protocol/FinalizeCommand.java
/home/ahmed/app/hadoop-2.7.2-src/hadoop-hdfs-project/hadoop-hdfs/src/main/java/org/apache/hadoop/hdfs/server/namenode/ClusterJspHelper.java
/home/ahmed/app/hadoop-2.7.2-src/hadoop-hdfs-project/hadoop-hdfs/src/main/java/org/apache/hadoop/hdfs/server/namenode/ha/HAContext.java
/home/ahmed/app/hadoop-2.7.2-src/hadoop-hdfs-project/hadoop-hdfs/src/main/java/org/apache/hadoop/fs/CacheFlag.java
/home/ahmed/app/hadoop-2.7.2-src/hadoop-hdfs-project/hadoop-hdfs/src/main/java/org/apache/hadoop/hdfs/protocol/BlockListAsLongs.java
/home/ahmed/app/hadoop-2.7.2-src/hadoop-hdfs-project/hadoop-hdfs/src/main/java/org/apache/hadoop/hdfs/server/namenode/INodeAttributeProvider.java
/home/ahmed/app/hadoop-2.7.2-src/hadoop-hdfs-project/hadoop-hdfs/src/main/java/org/apache/hadoop/hdfs/web/resources/DeleteOpParam.java
/home/ahmed/app/hadoop-2.7.2-src/hadoop-hdfs-project/hadoop-hdfs/target/generated-sources/java/org/apache/hadoop/hdfs/protocol/proto/NamenodeProtocolProtos.java
/home/ahmed/app/hadoop-2.7.2-src/hadoop-hdfs-project/hadoop-hdfs/src/main/java/org/apache/hadoop/hdfs/server/namenode/INodeSymlink.java
/home/ahmed/app/hadoop-2.7.2-src/hadoop-hdfs-project/hadoop-hdfs/src/main/java/org/apache/hadoop/hdfs/server/namenode/Quota.java
/home/ahmed/app/hadoop-2.7.2-src/hadoop-hdfs-project/hadoop-hdfs/src/main/java/org/apache/hadoop/hdfs/server/namenode/snapshot/DirectorySnapshottableFeature.java
/home/ahmed/app/hadoop-2.7.2-src/hadoop-hdfs-project/hadoop-hdfs/src/main/java/org/apache/hadoop/hdfs/protocol/datatransfer/DataTransferProtoUtil.java
/home/ahmed/app/hadoop-2.7.2-src/hadoop-hdfs-project/hadoop-hdfs/src/main/java/org/apache/hadoop/hdfs/server/protocol/JournalProtocol.java
/home/ahmed/app/hadoop-2.7.2-src/hadoop-hdfs-project/hadoop-hdfs/src/main/java/org/apache/hadoop/hdfs/server/datanode/BlockScanner.java
/home/ahmed/app/hadoop-2.7.2-src/hadoop-hdfs-project/hadoop-hdfs/src/main/java/org/apache/hadoop/hdfs/protocolPB/ClientDatanodeProtocolPB.java
/home/ahmed/app/hadoop-2.7.2-src/hadoop-hdfs-project/hadoop-hdfs/src/main/java/org/apache/hadoop/hdfs/protocol/SnapshottableDirectoryStatus.java
/home/ahmed/app/hadoop-2.7.2-src/hadoop-hdfs-project/hadoop-hdfs/src/main/java/org/apache/hadoop/hdfs/server/blockmanagement/BlockPlacementStatus.java
/home/ahmed/app/hadoop-2.7.2-src/hadoop-hdfs-project/hadoop-hdfs/src/main/java/org/apache/hadoop/hdfs/server/namenode/SafeMode.java
/home/ahmed/app/hadoop-2.7.2-src/hadoop-hdfs-project/hadoop-hdfs/src/main/java/org/apache/hadoop/hdfs/server/blockmanagement/BlockPlacementPolicyDefault.java
/home/ahmed/app/hadoop-2.7.2-src/hadoop-hdfs-project/hadoop-hdfs/src/main/java/org/apache/hadoop/hdfs/protocolPB/JournalProtocolServerSideTranslatorPB.java
/home/ahmed/app/hadoop-2.7.2-src/hadoop-hdfs-project/hadoop-hdfs/src/main/java/org/apache/hadoop/hdfs/server/namenode/snapshot/SnapshotStatsMXBean.java
/home/ahmed/app/hadoop-2.7.2-src/hadoop-hdfs-project/hadoop-hdfs/src/main/java/org/apache/hadoop/hdfs/qjournal/client/SegmentRecoveryComparator.java
/home/ahmed/app/hadoop-2.7.2-src/hadoop-hdfs-project/hadoop-hdfs/src/main/java/org/apache/hadoop/hdfs/net/DomainPeerServer.java
/home/ahmed/app/hadoop-2.7.2-src/hadoop-hdfs-project/hadoop-hdfs/src/main/java/org/apache/hadoop/hdfs/web/resources/UriFsPathParam.java
/home/ahmed/app/hadoop-2.7.2-src/hadoop-hdfs-project/hadoop-hdfs/src/main/java/org/apache/hadoop/hdfs/server/blockmanagement/OutOfV1GenerationStampsException.java
/home/ahmed/app/hadoop-2.7.2-src/hadoop-hdfs-project/hadoop-hdfs/src/main/java/org/apache/hadoop/hdfs/protocolPB/DatanodeProtocolClientSideTranslatorPB.java
/home/ahmed/app/hadoop-2.7.2-src/hadoop-hdfs-project/hadoop-hdfs/src/main/java/org/apache/hadoop/hdfs/tools/NNHAServiceTarget.java
/home/ahmed/app/hadoop-2.7.2-src/hadoop-hdfs-project/hadoop-hdfs/src/main/java/org/apache/hadoop/hdfs/server/protocol/InterDatanodeProtocol.java
/home/ahmed/app/hadoop-2.7.2-src/hadoop-hdfs-project/hadoop-hdfs/src/main/java/org/apache/hadoop/hdfs/server/namenode/XAttrFeature.java
/home/ahmed/app/hadoop-2.7.2-src/hadoop-hdfs-project/hadoop-hdfs/src/main/java/org/apache/hadoop/hdfs/net/NioInetPeer.java
/home/ahmed/app/hadoop-2.7.2-src/hadoop-hdfs-project/hadoop-hdfs/src/main/java/org/apache/hadoop/hdfs/server/protocol/HeartbeatResponse.java
/home/ahmed/app/hadoop-2.7.2-src/hadoop-hdfs-project/hadoop-hdfs/src/main/java/org/apache/hadoop/hdfs/web/JsonUtil.java
/home/ahmed/app/hadoop-2.7.2-src/hadoop-hdfs-project/hadoop-hdfs/src/main/java/org/apache/hadoop/hdfs/web/resources/LongParam.java
/home/ahmed/app/hadoop-2.7.2-src/hadoop-hdfs-project/hadoop-hdfs/src/main/java/org/apache/hadoop/hdfs/server/namenode/UnsupportedActionException.java
/home/ahmed/app/hadoop-2.7.2-src/hadoop-hdfs-project/hadoop-hdfs/src/main/java/org/apache/hadoop/hdfs/server/datanode/metrics/DataNodeMetrics.java
/home/ahmed/app/hadoop-2.7.2-src/hadoop-hdfs-project/hadoop-hdfs/src/main/java/org/apache/hadoop/hdfs/protocol/datatransfer/sasl/SaslResponseWithNegotiatedCipherOption.java
/home/ahmed/app/hadoop-2.7.2-src/hadoop-hdfs-project/hadoop-hdfs/src/main/java/org/apache/hadoop/hdfs/server/datanode/web/webhdfs/HdfsWriter.java
/home/ahmed/app/hadoop-2.7.2-src/hadoop-hdfs-project/hadoop-hdfs/src/main/java/org/apache/hadoop/hdfs/protocol/datatransfer/sasl/SaslParticipant.java
/home/ahmed/app/hadoop-2.7.2-src/hadoop-hdfs-project/hadoop-hdfs/src/main/java/org/apache/hadoop/hdfs/protocol/CacheDirectiveEntry.java
/home/ahmed/app/hadoop-2.7.2-src/hadoop-hdfs-project/hadoop-hdfs/src/main/java/org/apache/hadoop/hdfs/server/protocol/BlocksWithLocations.java
/home/ahmed/app/hadoop-2.7.2-src/hadoop-hdfs-project/hadoop-hdfs/src/main/java/org/apache/hadoop/hdfs/server/blockmanagement/Host2NodesMap.java
/home/ahmed/app/hadoop-2.7.2-src/hadoop-hdfs-project/hadoop-hdfs/src/main/java/org/apache/hadoop/hdfs/protocolPB/ClientDatanodeProtocolServerSideTranslatorPB.java
/home/ahmed/app/hadoop-2.7.2-src/hadoop-hdfs-project/hadoop-hdfs/src/main/java/org/apache/hadoop/hdfs/qjournal/server/Journal.java
/home/ahmed/app/hadoop-2.7.2-src/hadoop-hdfs-project/hadoop-hdfs/src/main/java/org/apache/hadoop/hdfs/qjournal/protocol/QJournalProtocol.java
/home/ahmed/app/hadoop-2.7.2-src/hadoop-hdfs-project/hadoop-hdfs/src/main/java/org/apache/hadoop/hdfs/server/datanode/BlockReceiver.java
/home/ahmed/app/hadoop-2.7.2-src/hadoop-hdfs-project/hadoop-hdfs/src/main/java/org/apache/hadoop/hdfs/server/protocol/JournalInfo.java
/home/ahmed/app/hadoop-2.7.2-src/hadoop-hdfs-project/hadoop-hdfs/src/main/java/org/apache/hadoop/hdfs/server/datanode/DataXceiver.java
/home/ahmed/app/hadoop-2.7.2-src/hadoop-hdfs-project/hadoop-hdfs/src/main/java/org/apache/hadoop/hdfs/server/datanode/fsdataset/impl/FsVolumeImpl.java
/home/ahmed/app/hadoop-2.7.2-src/hadoop-hdfs-project/hadoop-hdfs/src/main/java/org/apache/hadoop/hdfs/tools/offlineEditsViewer/TeeOutputStream.java
/home/ahmed/app/hadoop-2.7.2-src/hadoop-hdfs-project/hadoop-hdfs/src/main/java/org/apache/hadoop/hdfs/server/protocol/DatanodeCommand.java
/home/ahmed/app/hadoop-2.7.2-src/hadoop-hdfs-project/hadoop-hdfs/src/main/java/org/apache/hadoop/hdfs/qjournal/client/QuorumJournalManager.java
/home/ahmed/app/hadoop-2.7.2-src/hadoop-hdfs-project/hadoop-hdfs/src/main/java/org/apache/hadoop/hdfs/util/ByteBufferOutputStream.java
/home/ahmed/app/hadoop-2.7.2-src/hadoop-hdfs-project/hadoop-hdfs/src/main/java/org/apache/hadoop/hdfs/web/resources/LengthParam.java
/home/ahmed/app/hadoop-2.7.2-src/hadoop-hdfs-project/hadoop-hdfs/src/main/java/org/apache/hadoop/hdfs/protocol/CachePoolStats.java
/home/ahmed/app/hadoop-2.7.2-src/hadoop-hdfs-project/hadoop-hdfs/src/main/java/org/apache/hadoop/hdfs/protocol/datatransfer/IOStreamPair.java
/home/ahmed/app/hadoop-2.7.2-src/hadoop-hdfs-project/hadoop-hdfs/src/main/java/org/apache/hadoop/hdfs/protocol/RollingUpgradeStatus.java
/home/ahmed/app/hadoop-2.7.2-src/hadoop-hdfs-project/hadoop-hdfs/src/main/java/org/apache/hadoop/hdfs/CorruptFileBlockIterator.java
/home/ahmed/app/hadoop-2.7.2-src/hadoop-hdfs-project/hadoop-hdfs/src/main/java/org/apache/hadoop/hdfs/server/namenode/FSPermissionChecker.java
/home/ahmed/app/hadoop-2.7.2-src/hadoop-hdfs-project/hadoop-hdfs/src/main/java/org/apache/hadoop/hdfs/server/protocol/NamespaceInfo.java
/home/ahmed/app/hadoop-2.7.2-src/hadoop-hdfs-project/hadoop-hdfs/src/main/java/org/apache/hadoop/hdfs/protocolPB/JournalProtocolPB.java
/home/ahmed/app/hadoop-2.7.2-src/hadoop-hdfs-project/hadoop-hdfs/src/main/java/org/apache/hadoop/hdfs/protocolPB/InterDatanodeProtocolPB.java
/home/ahmed/app/hadoop-2.7.2-src/hadoop-hdfs-project/hadoop-hdfs/src/main/java/org/apache/hadoop/hdfs/server/namenode/FSImageTransactionalStorageInspector.java
/home/ahmed/app/hadoop-2.7.2-src/hadoop-hdfs-project/hadoop-hdfs/src/main/java/org/apache/hadoop/hdfs/qjournal/client/QuorumOutputStream.java
/home/ahmed/app/hadoop-2.7.2-src/hadoop-hdfs-project/hadoop-hdfs/src/main/java/org/apache/hadoop/hdfs/tools/offlineImageViewer/ImageLoaderCurrent.java
/home/ahmed/app/hadoop-2.7.2-src/hadoop-hdfs-project/hadoop-hdfs/src/main/java/org/apache/hadoop/hdfs/server/namenode/INodeFile.java
/home/ahmed/app/hadoop-2.7.2-src/hadoop-hdfs-project/hadoop-hdfs/src/main/java/org/apache/hadoop/hdfs/server/namenode/FSDirMkdirOp.java
/home/ahmed/app/hadoop-2.7.2-src/hadoop-hdfs-project/hadoop-hdfs/src/main/java/org/apache/hadoop/hdfs/server/namenode/RetryStartFileException.java
/home/ahmed/app/hadoop-2.7.2-src/hadoop-hdfs-project/hadoop-hdfs/src/main/java/org/apache/hadoop/hdfs/server/blockmanagement/CorruptReplicasMap.java
/home/ahmed/app/hadoop-2.7.2-src/hadoop-hdfs-project/hadoop-hdfs/src/main/java/org/apache/hadoop/hdfs/server/datanode/DatanodeUtil.java
/home/ahmed/app/hadoop-2.7.2-src/hadoop-hdfs-project/hadoop-hdfs/src/main/java/org/apache/hadoop/hdfs/server/namenode/BackupState.java
/home/ahmed/app/hadoop-2.7.2-src/hadoop-hdfs-project/hadoop-hdfs/src/main/java/org/apache/hadoop/hdfs/server/datanode/fsdataset/impl/FsVolumeList.java
/home/ahmed/app/hadoop-2.7.2-src/hadoop-hdfs-project/hadoop-hdfs/src/main/java/org/apache/hadoop/hdfs/protocol/QuotaExceededException.java
/home/ahmed/app/hadoop-2.7.2-src/hadoop-hdfs-project/hadoop-hdfs/src/main/java/org/apache/hadoop/hdfs/web/ParamFilter.java
/home/ahmed/app/hadoop-2.7.2-src/hadoop-hdfs-project/hadoop-hdfs/src/main/java/org/apache/hadoop/hdfs/server/balancer/Matcher.java
/home/ahmed/app/hadoop-2.7.2-src/hadoop-hdfs-project/hadoop-hdfs/src/main/java/org/apache/hadoop/hdfs/protocol/LastBlockWithStatus.java
/home/ahmed/app/hadoop-2.7.2-src/hadoop-hdfs-project/hadoop-hdfs/src/main/java/org/apache/hadoop/hdfs/security/token/block/ExportedBlockKeys.java
/home/ahmed/app/hadoop-2.7.2-src/hadoop-hdfs-project/hadoop-hdfs/src/main/java/org/apache/hadoop/hdfs/util/RwLock.java
/home/ahmed/app/hadoop-2.7.2-src/hadoop-hdfs-project/hadoop-hdfs/src/main/java/org/apache/hadoop/hdfs/server/datanode/fsdataset/ReplicaOutputStreams.java
/home/ahmed/app/hadoop-2.7.2-src/hadoop-hdfs-project/hadoop-hdfs/src/main/java/org/apache/hadoop/hdfs/server/namenode/ha/ActiveState.java
/home/ahmed/app/hadoop-2.7.2-src/hadoop-hdfs-project/hadoop-hdfs/src/main/java/org/apache/hadoop/hdfs/protocol/datatransfer/BlockConstructionStage.java
/home/ahmed/app/hadoop-2.7.2-src/hadoop-hdfs-project/hadoop-hdfs/src/main/java/org/apache/hadoop/hdfs/server/datanode/web/webhdfs/ExceptionHandler.java
/home/ahmed/app/hadoop-2.7.2-src/hadoop-hdfs-project/hadoop-hdfs/src/main/java/org/apache/hadoop/hdfs/server/protocol/BalancerBandwidthCommand.java
/home/ahmed/app/hadoop-2.7.2-src/hadoop-hdfs-project/hadoop-hdfs/src/main/java/org/apache/hadoop/hdfs/net/Peer.java
/home/ahmed/app/hadoop-2.7.2-src/hadoop-hdfs-project/hadoop-hdfs/src/main/java/org/apache/hadoop/hdfs/server/namenode/GetDelegationTokenServlet.java
/home/ahmed/app/hadoop-2.7.2-src/hadoop-hdfs-project/hadoop-hdfs/src/main/java/org/apache/hadoop/hdfs/protocol/ClientDatanodeProtocol.java
/home/ahmed/app/hadoop-2.7.2-src/hadoop-hdfs-project/hadoop-hdfs/src/main/java/org/apache/hadoop/hdfs/protocol/FsPermissionExtension.java
/home/ahmed/app/hadoop-2.7.2-src/hadoop-hdfs-project/hadoop-hdfs/src/main/java/org/apache/hadoop/hdfs/server/blockmanagement/DatanodeDescriptor.java
/home/ahmed/app/hadoop-2.7.2-src/hadoop-hdfs-project/hadoop-hdfs/target/generated-sources/java/org/apache/hadoop/hdfs/server/namenode/FsImageProto.java
/home/ahmed/app/hadoop-2.7.2-src/hadoop-hdfs-project/hadoop-hdfs/src/main/java/org/apache/hadoop/hdfs/server/datanode/DNConf.java
/home/ahmed/app/hadoop-2.7.2-src/hadoop-hdfs-project/hadoop-hdfs/src/main/java/org/apache/hadoop/hdfs/server/namenode/FSNamesystem.java
/home/ahmed/app/hadoop-2.7.2-src/hadoop-hdfs-project/hadoop-hdfs/src/main/java/org/apache/hadoop/hdfs/tools/offlineImageViewer/OfflineImageViewerPB.java
/home/ahmed/app/hadoop-2.7.2-src/hadoop-hdfs-project/hadoop-hdfs/src/main/java/org/apache/hadoop/hdfs/web/resources/NewLengthParam.java
/home/ahmed/app/hadoop-2.7.2-src/hadoop-hdfs-project/hadoop-hdfs/src/main/java/org/apache/hadoop/hdfs/server/namenode/LogsPurgeable.java
/home/ahmed/app/hadoop-2.7.2-src/hadoop-hdfs-project/hadoop-hdfs/src/main/java/org/apache/hadoop/hdfs/server/namenode/BackupImage.java
/home/ahmed/app/hadoop-2.7.2-src/hadoop-hdfs-project/hadoop-hdfs/src/main/java/org/apache/hadoop/hdfs/server/protocol/RemoteEditLog.java
/home/ahmed/app/hadoop-2.7.2-src/hadoop-hdfs-project/hadoop-hdfs/src/main/java/org/apache/hadoop/hdfs/qjournal/client/IPCLoggerChannelMetrics.java
/home/ahmed/app/hadoop-2.7.2-src/hadoop-hdfs-project/hadoop-hdfs/src/main/java/org/apache/hadoop/hdfs/UnknownCipherSuiteException.java
/home/ahmed/app/hadoop-2.7.2-src/hadoop-hdfs-project/hadoop-hdfs/src/main/java/org/apache/hadoop/hdfs/server/datanode/web/webhdfs/DataNodeUGIProvider.java
/home/ahmed/app/hadoop-2.7.2-src/hadoop-hdfs-project/hadoop-hdfs/src/main/java/org/apache/hadoop/hdfs/DFSHedgedReadMetrics.java
/home/ahmed/app/hadoop-2.7.2-src/hadoop-hdfs-project/hadoop-hdfs/src/main/java/org/apache/hadoop/hdfs/security/token/block/BlockTokenSecretManager.java
/home/ahmed/app/hadoop-2.7.2-src/hadoop-hdfs-project/hadoop-hdfs/src/main/java/org/apache/hadoop/hdfs/DFSInotifyEventInputStream.java
/home/ahmed/app/hadoop-2.7.2-src/hadoop-hdfs-project/hadoop-hdfs/src/main/java/org/apache/hadoop/hdfs/server/namenode/FSNamesystemLock.java
/home/ahmed/app/hadoop-2.7.2-src/hadoop-hdfs-project/hadoop-hdfs/src/main/java/org/apache/hadoop/hdfs/server/namenode/CheckpointFaultInjector.java
/home/ahmed/app/hadoop-2.7.2-src/hadoop-hdfs-project/hadoop-hdfs/src/main/java/org/apache/hadoop/hdfs/tools/CryptoAdmin.java
/home/ahmed/app/hadoop-2.7.2-src/hadoop-hdfs-project/hadoop-hdfs/target/generated-sources/java/org/apache/hadoop/hdfs/protocol/proto/XAttrProtos.java
/home/ahmed/app/hadoop-2.7.2-src/hadoop-hdfs-project/hadoop-hdfs/src/main/java/org/apache/hadoop/hdfs/NameNodeProxies.java
/home/ahmed/app/hadoop-2.7.2-src/hadoop-hdfs-project/hadoop-hdfs/src/main/java/org/apache/hadoop/hdfs/client/HdfsAdmin.java
/home/ahmed/app/hadoop-2.7.2-src/hadoop-hdfs-project/hadoop-hdfs/src/main/java/org/apache/hadoop/hdfs/web/resources/TokenArgumentParam.java
/home/ahmed/app/hadoop-2.7.2-src/hadoop-hdfs-project/hadoop-hdfs/src/main/java/org/apache/hadoop/hdfs/server/datanode/ReplicaNotFoundException.java
/home/ahmed/app/hadoop-2.7.2-src/hadoop-hdfs-project/hadoop-hdfs/src/main/java/org/apache/hadoop/hdfs/tools/offlineEditsViewer/OfflineEditsVisitor.java
/home/ahmed/app/hadoop-2.7.2-src/hadoop-hdfs-project/hadoop-hdfs/src/main/java/org/apache/hadoop/hdfs/server/blockmanagement/BlockPlacementPolicyWithNodeGroup.java
/home/ahmed/app/hadoop-2.7.2-src/hadoop-hdfs-project/hadoop-hdfs/src/main/java/org/apache/hadoop/hdfs/server/namenode/INodesInPath.java
/home/ahmed/app/hadoop-2.7.2-src/hadoop-hdfs-project/hadoop-hdfs/src/main/java/org/apache/hadoop/hdfs/util/CyclicIteration.java
/home/ahmed/app/hadoop-2.7.2-src/hadoop-hdfs-project/hadoop-hdfs/src/main/java/org/apache/hadoop/hdfs/server/balancer/MovedBlocks.java
/home/ahmed/app/hadoop-2.7.2-src/hadoop-hdfs-project/hadoop-hdfs/target/generated-sources/java/org/apache/hadoop/hdfs/protocol/proto/JournalProtocolProtos.java
/home/ahmed/app/hadoop-2.7.2-src/hadoop-hdfs-project/hadoop-hdfs/src/main/java/org/apache/hadoop/hdfs/tools/offlineEditsViewer/OfflineEditsVisitorFactory.java
/home/ahmed/app/hadoop-2.7.2-src/hadoop-hdfs-project/hadoop-hdfs/src/main/java/org/apache/hadoop/hdfs/util/ReferenceCountMap.java
/home/ahmed/app/hadoop-2.7.2-src/hadoop-hdfs-project/hadoop-hdfs/src/main/java/org/apache/hadoop/hdfs/server/namenode/startupprogress/StartupProgressView.java
/home/ahmed/app/hadoop-2.7.2-src/hadoop-hdfs-project/hadoop-hdfs/src/main/java/org/apache/hadoop/hdfs/server/namenode/snapshot/AbstractINodeDiff.java
/home/ahmed/app/hadoop-2.7.2-src/hadoop-hdfs-project/hadoop-hdfs/src/main/java/org/apache/hadoop/hdfs/protocol/FSConstants.java
/home/ahmed/app/hadoop-2.7.2-src/hadoop-hdfs-project/hadoop-hdfs/src/main/java/org/apache/hadoop/hdfs/server/namenode/EditLogFileOutputStream.java
/home/ahmed/app/hadoop-2.7.2-src/hadoop-hdfs-project/hadoop-hdfs/src/main/java/org/apache/hadoop/hdfs/server/datanode/DataNodeMXBean.java
/home/ahmed/app/hadoop-2.7.2-src/hadoop-hdfs-project/hadoop-hdfs/src/main/java/org/apache/hadoop/hdfs/server/protocol/NamenodeCommand.java
/home/ahmed/app/hadoop-2.7.2-src/hadoop-hdfs-project/hadoop-hdfs/src/main/java/org/apache/hadoop/hdfs/tools/offlineEditsViewer/StatisticsEditsVisitor.java
/home/ahmed/app/hadoop-2.7.2-src/hadoop-hdfs-project/hadoop-hdfs/src/main/java/org/apache/hadoop/hdfs/protocol/CacheDirectiveInfo.java
/home/ahmed/app/hadoop-2.7.2-src/hadoop-hdfs-project/hadoop-hdfs/src/main/java/org/apache/hadoop/hdfs/protocol/DatanodeInfoWithStorage.java
/home/ahmed/app/hadoop-2.7.2-src/hadoop-hdfs-project/hadoop-hdfs/target/generated-sources/java/org/apache/hadoop/hdfs/protocol/proto/AclProtos.java
/home/ahmed/app/hadoop-2.7.2-src/hadoop-hdfs-project/hadoop-hdfs/src/main/java/org/apache/hadoop/hdfs/server/namenode/top/window/RollingWindow.java
/home/ahmed/app/hadoop-2.7.2-src/hadoop-hdfs-project/hadoop-hdfs/src/main/java/org/apache/hadoop/hdfs/server/blockmanagement/UnderReplicatedBlocks.java
/home/ahmed/app/hadoop-2.7.2-src/hadoop-hdfs-project/hadoop-hdfs/src/main/java/org/apache/hadoop/hdfs/tools/DFSZKFailoverController.java
/home/ahmed/app/hadoop-2.7.2-src/hadoop-hdfs-project/hadoop-hdfs/src/main/java/org/apache/hadoop/hdfs/protocol/HdfsFileStatus.java
/home/ahmed/app/hadoop-2.7.2-src/hadoop-hdfs-project/hadoop-hdfs/src/main/java/org/apache/hadoop/hdfs/inotify/Event.java
/home/ahmed/app/hadoop-2.7.2-src/hadoop-hdfs-project/hadoop-hdfs/src/main/java/org/apache/hadoop/hdfs/protocol/datatransfer/TrustedChannelResolver.java
/home/ahmed/app/hadoop-2.7.2-src/hadoop-hdfs-project/hadoop-hdfs/src/main/java/org/apache/hadoop/hdfs/server/namenode/startupprogress/StartupProgress.java
/home/ahmed/app/hadoop-2.7.2-src/hadoop-hdfs-project/hadoop-hdfs/src/main/java/org/apache/hadoop/hdfs/qjournal/protocol/JournalOutOfSyncException.java
/home/ahmed/app/hadoop-2.7.2-src/hadoop-hdfs-project/hadoop-hdfs/src/main/java/org/apache/hadoop/hdfs/inotify/EventBatch.java
/home/ahmed/app/hadoop-2.7.2-src/hadoop-hdfs-project/hadoop-hdfs/src/main/java/org/apache/hadoop/hdfs/tools/DelegationTokenFetcher.java
/home/ahmed/app/hadoop-2.7.2-src/hadoop-hdfs-project/hadoop-hdfs/src/main/java/org/apache/hadoop/hdfs/server/datanode/ReportBadBlockAction.java
/home/ahmed/app/hadoop-2.7.2-src/hadoop-hdfs-project/hadoop-hdfs/src/main/java/org/apache/hadoop/hdfs/tools/GetGroups.java
/home/ahmed/app/hadoop-2.7.2-src/hadoop-hdfs-project/hadoop-hdfs/src/main/java/org/apache/hadoop/hdfs/security/token/block/BlockKey.java
/home/ahmed/app/hadoop-2.7.2-src/hadoop-hdfs-project/hadoop-hdfs/src/main/java/org/apache/hadoop/hdfs/protocol/UnresolvedPathException.java
/home/ahmed/app/hadoop-2.7.2-src/hadoop-hdfs-project/hadoop-hdfs/src/main/java/org/apache/hadoop/hdfs/web/resources/BooleanParam.java
/home/ahmed/app/hadoop-2.7.2-src/hadoop-hdfs-project/hadoop-hdfs/src/main/java/org/apache/hadoop/hdfs/server/protocol/BlockCommand.java
/home/ahmed/app/hadoop-2.7.2-src/hadoop-hdfs-project/hadoop-hdfs/src/main/java/org/apache/hadoop/hdfs/server/datanode/fsdataset/impl/RamDiskAsyncLazyPersistService.java
/home/ahmed/app/hadoop-2.7.2-src/hadoop-hdfs-project/hadoop-hdfs/src/main/java/org/apache/hadoop/hdfs/protocol/CacheDirectiveStats.java
/home/ahmed/app/hadoop-2.7.2-src/hadoop-hdfs-project/hadoop-hdfs/src/main/java/org/apache/hadoop/hdfs/server/protocol/DisallowedDatanodeException.java
/home/ahmed/app/hadoop-2.7.2-src/hadoop-hdfs-project/hadoop-hdfs/src/main/java/org/apache/hadoop/hdfs/server/namenode/StreamFile.java
/home/ahmed/app/hadoop-2.7.2-src/hadoop-hdfs-project/hadoop-hdfs/src/main/java/org/apache/hadoop/hdfs/protocol/DatanodeInfo.java
/home/ahmed/app/hadoop-2.7.2-src/hadoop-hdfs-project/hadoop-hdfs/target/generated-sources/java/org/apache/hadoop/hdfs/server/namenode/ha/proto/HAZKInfoProtos.java
/home/ahmed/app/hadoop-2.7.2-src/hadoop-hdfs-project/hadoop-hdfs/src/main/java/org/apache/hadoop/hdfs/server/datanode/UnexpectedReplicaStateException.java
/home/ahmed/app/hadoop-2.7.2-src/hadoop-hdfs-project/hadoop-hdfs/src/main/java/org/apache/hadoop/hdfs/server/namenode/RedundantEditLogInputStream.java
/home/ahmed/app/hadoop-2.7.2-src/hadoop-hdfs-project/hadoop-hdfs/src/main/java/org/apache/hadoop/hdfs/server/blockmanagement/PendingReplicationBlocks.java
/home/ahmed/app/hadoop-2.7.2-src/hadoop-hdfs-project/hadoop-hdfs/src/main/java/org/apache/hadoop/hdfs/protocol/CachePoolInfo.java
/home/ahmed/app/hadoop-2.7.2-src/hadoop-hdfs-project/hadoop-hdfs/src/main/java/org/apache/hadoop/hdfs/server/namenode/EditLogInputStream.java
/home/ahmed/app/hadoop-2.7.2-src/hadoop-hdfs-project/hadoop-hdfs/src/main/java/org/apache/hadoop/hdfs/server/datanode/DataStorage.java
/home/ahmed/app/hadoop-2.7.2-src/hadoop-hdfs-project/hadoop-hdfs/src/main/java/org/apache/hadoop/hdfs/server/namenode/EditLogInputException.java
/home/ahmed/app/hadoop-2.7.2-src/hadoop-hdfs-project/hadoop-hdfs/src/main/java/org/apache/hadoop/hdfs/server/namenode/StreamLimiter.java
/home/ahmed/app/hadoop-2.7.2-src/hadoop-hdfs-project/hadoop-hdfs/src/main/java/org/apache/hadoop/fs/Hdfs.java
/home/ahmed/app/hadoop-2.7.2-src/hadoop-hdfs-project/hadoop-hdfs/src/main/java/org/apache/hadoop/hdfs/server/namenode/startupprogress/StartupProgressMetrics.java
/home/ahmed/app/hadoop-2.7.2-src/hadoop-hdfs-project/hadoop-hdfs/src/main/java/org/apache/hadoop/hdfs/server/datanode/fsdataset/RoundRobinVolumeChoosingPolicy.java
/home/ahmed/app/hadoop-2.7.2-src/hadoop-hdfs-project/hadoop-hdfs/src/main/java/org/apache/hadoop/hdfs/server/blockmanagement/HeartbeatManager.java
/home/ahmed/app/hadoop-2.7.2-src/hadoop-hdfs-project/hadoop-hdfs/src/main/java/org/apache/hadoop/hdfs/server/namenode/ContentSummaryComputationContext.java
/home/ahmed/app/hadoop-2.7.2-src/hadoop-hdfs-project/hadoop-hdfs/src/main/java/org/apache/hadoop/hdfs/server/datanode/CachingStrategy.java
/home/ahmed/app/hadoop-2.7.2-src/hadoop-hdfs-project/hadoop-hdfs/target/generated-sources/java/org/apache/hadoop/hdfs/protocol/proto/EncryptionZonesProtos.java
/home/ahmed/app/hadoop-2.7.2-src/hadoop-hdfs-project/hadoop-hdfs/src/main/java/org/apache/hadoop/hdfs/web/resources/NamenodeAddressParam.java
/home/ahmed/app/hadoop-2.7.2-src/hadoop-hdfs-project/hadoop-hdfs/src/main/java/org/apache/hadoop/hdfs/web/resources/XAttrSetFlagParam.java
/home/ahmed/app/hadoop-2.7.2-src/hadoop-hdfs-project/hadoop-hdfs/src/main/java/org/apache/hadoop/hdfs/security/token/delegation/DelegationTokenIdentifier.java
/home/ahmed/app/hadoop-2.7.2-src/hadoop-hdfs-project/hadoop-hdfs/src/main/java/org/apache/hadoop/hdfs/util/Diff.java
/home/ahmed/app/hadoop-2.7.2-src/hadoop-hdfs-project/hadoop-hdfs/src/main/java/org/apache/hadoop/hdfs/UnknownCryptoProtocolVersionException.java
/home/ahmed/app/hadoop-2.7.2-src/hadoop-hdfs-project/hadoop-hdfs/src/main/java/org/apache/hadoop/hdfs/server/namenode/EditLogOutputStream.java
/home/ahmed/app/hadoop-2.7.2-src/hadoop-hdfs-project/hadoop-hdfs/src/main/java/org/apache/hadoop/hdfs/server/datanode/fsdataset/LengthInputStream.java
/home/ahmed/app/hadoop-2.7.2-src/hadoop-hdfs-project/hadoop-hdfs/src/main/java/org/apache/hadoop/hdfs/shortcircuit/ShortCircuitCache.java
/home/ahmed/app/hadoop-2.7.2-src/hadoop-hdfs-project/hadoop-hdfs/src/main/java/org/apache/hadoop/hdfs/server/namenode/AclEntryStatusFormat.java
/home/ahmed/app/hadoop-2.7.2-src/hadoop-hdfs-project/hadoop-hdfs/src/main/java/org/apache/hadoop/hdfs/protocol/datatransfer/sasl/SaslDataTransferServer.java
/home/ahmed/app/hadoop-2.7.2-src/hadoop-hdfs-project/hadoop-hdfs/src/main/java/org/apache/hadoop/hdfs/qjournal/server/GetJournalEditServlet.java
/home/ahmed/app/hadoop-2.7.2-src/hadoop-hdfs-project/hadoop-hdfs/src/main/java/org/apache/hadoop/hdfs/web/resources/AccessTimeParam.java
/home/ahmed/app/hadoop-2.7.2-src/hadoop-hdfs-project/hadoop-hdfs/src/main/java/org/apache/hadoop/hdfs/RemotePeerFactory.java
/home/ahmed/app/hadoop-2.7.2-src/hadoop-hdfs-project/hadoop-hdfs/src/main/java/org/apache/hadoop/hdfs/server/protocol/KeyUpdateCommand.java
/home/ahmed/app/hadoop-2.7.2-src/hadoop-hdfs-project/hadoop-hdfs/src/main/java/org/apache/hadoop/hdfs/server/namenode/ha/HAState.java
/home/ahmed/app/hadoop-2.7.2-src/hadoop-hdfs-project/hadoop-hdfs/src/main/java/org/apache/hadoop/hdfs/net/TcpPeerServer.java
/home/ahmed/app/hadoop-2.7.2-src/hadoop-hdfs-project/hadoop-hdfs/src/main/java/org/apache/hadoop/hdfs/web/resources/AclPermissionParam.java
/home/ahmed/app/hadoop-2.7.2-src/hadoop-hdfs-project/hadoop-hdfs/src/main/java/org/apache/hadoop/hdfs/server/namenode/NamenodeJspHelper.java
/home/ahmed/app/hadoop-2.7.2-src/hadoop-hdfs-project/hadoop-hdfs/target/generated-sources/java/org/apache/hadoop/hdfs/protocol/proto/DatanodeProtocolProtos.java
/home/ahmed/app/hadoop-2.7.2-src/hadoop-hdfs-project/hadoop-hdfs/src/main/java/org/apache/hadoop/hdfs/shortcircuit/ClientMmap.java
/home/ahmed/app/hadoop-2.7.2-src/hadoop-hdfs-project/hadoop-hdfs/src/main/java/org/apache/hadoop/hdfs/util/DataTransferThrottler.java
/home/ahmed/app/hadoop-2.7.2-src/hadoop-hdfs-project/hadoop-hdfs/target/generated-sources/java/org/apache/hadoop/hdfs/protocol/proto/InotifyProtos.java
/home/ahmed/app/hadoop-2.7.2-src/hadoop-hdfs-project/hadoop-hdfs/src/main/java/org/apache/hadoop/hdfs/server/datanode/ReplicaInPipeline.java
/home/ahmed/app/hadoop-2.7.2-src/hadoop-hdfs-project/hadoop-hdfs/src/main/java/org/apache/hadoop/hdfs/protocol/LocatedBlock.java
/home/ahmed/app/hadoop-2.7.2-src/hadoop-hdfs-project/hadoop-hdfs/src/main/java/org/apache/hadoop/hdfs/server/namenode/NNUpgradeUtil.java
/home/ahmed/app/hadoop-2.7.2-src/hadoop-hdfs-project/hadoop-hdfs/target/generated-sources/java/org/apache/hadoop/hdfs/protocol/proto/HdfsProtos.java
/home/ahmed/app/hadoop-2.7.2-src/hadoop-hdfs-project/hadoop-hdfs/src/main/java/org/apache/hadoop/hdfs/web/URLConnectionFactory.java
/home/ahmed/app/hadoop-2.7.2-src/hadoop-hdfs-project/hadoop-hdfs/src/main/java/org/apache/hadoop/hdfs/server/namenode/EncryptionZoneManager.java
/home/ahmed/app/hadoop-2.7.2-src/hadoop-hdfs-project/hadoop-hdfs/src/main/java/org/apache/hadoop/hdfs/net/BasicInetPeer.java
/home/ahmed/app/hadoop-2.7.2-src/hadoop-hdfs-project/hadoop-hdfs/src/main/java/org/apache/hadoop/hdfs/web/resources/GroupParam.java
/home/ahmed/app/hadoop-2.7.2-src/hadoop-hdfs-project/hadoop-hdfs/src/main/java/org/apache/hadoop/hdfs/server/namenode/FSImageStorageInspector.java
/home/ahmed/app/hadoop-2.7.2-src/hadoop-hdfs-project/hadoop-hdfs/src/main/java/org/apache/hadoop/hdfs/server/namenode/FSImageFormatPBINode.java
/home/ahmed/app/hadoop-2.7.2-src/hadoop-hdfs-project/hadoop-hdfs/src/main/java/org/apache/hadoop/hdfs/protocol/Block.java
/home/ahmed/app/hadoop-2.7.2-src/hadoop-hdfs-project/hadoop-hdfs/src/main/java/org/apache/hadoop/hdfs/protocol/datatransfer/sasl/InvalidMagicNumberException.java
/home/ahmed/app/hadoop-2.7.2-src/hadoop-hdfs-project/hadoop-hdfs/src/main/java/org/apache/hadoop/hdfs/server/namenode/SaveNamespaceContext.java
/home/ahmed/app/hadoop-2.7.2-src/hadoop-hdfs-project/hadoop-hdfs/src/main/java/org/apache/hadoop/hdfs/DFSOutputStream.java
/home/ahmed/app/hadoop-2.7.2-src/hadoop-hdfs-project/hadoop-hdfs/src/main/java/org/apache/hadoop/hdfs/server/mover/Mover.java
/home/ahmed/app/hadoop-2.7.2-src/hadoop-hdfs-project/hadoop-hdfs/target/generated-sources/java/org/apache/hadoop/hdfs/protocol/proto/ClientDatanodeProtocolProtos.java
/home/ahmed/app/hadoop-2.7.2-src/hadoop-hdfs-project/hadoop-hdfs/src/main/java/org/apache/hadoop/hdfs/shortcircuit/ShortCircuitShm.java
/home/ahmed/app/hadoop-2.7.2-src/hadoop-hdfs-project/hadoop-hdfs/src/main/java/org/apache/hadoop/hdfs/server/datanode/ReplicaInPipelineInterface.java
/home/ahmed/app/hadoop-2.7.2-src/hadoop-hdfs-project/hadoop-hdfs/src/main/java/org/apache/hadoop/hdfs/server/namenode/CachePool.java
/home/ahmed/app/hadoop-2.7.2-src/hadoop-hdfs-project/hadoop-hdfs/src/main/java/org/apache/hadoop/hdfs/protocolPB/NamenodeProtocolTranslatorPB.java
/home/ahmed/app/hadoop-2.7.2-src/hadoop-hdfs-project/hadoop-hdfs/src/main/java/org/apache/hadoop/hdfs/tools/offlineEditsViewer/BinaryEditsVisitor.java
/home/ahmed/app/hadoop-2.7.2-src/hadoop-hdfs-project/hadoop-hdfs/src/main/java/org/apache/hadoop/hdfs/qjournal/client/QuorumCall.java
/home/ahmed/app/hadoop-2.7.2-src/hadoop-hdfs-project/hadoop-hdfs/src/main/java/org/apache/hadoop/hdfs/server/datanode/DatanodeJspHelper.java
/home/ahmed/app/hadoop-2.7.2-src/hadoop-hdfs-project/hadoop-hdfs/src/main/java/org/apache/hadoop/hdfs/util/EnumCounters.java
/home/ahmed/app/hadoop-2.7.2-src/hadoop-hdfs-project/hadoop-hdfs/src/main/java/org/apache/hadoop/hdfs/server/namenode/DirectoryWithQuotaFeature.java
/home/ahmed/app/hadoop-2.7.2-src/hadoop-hdfs-project/hadoop-hdfs/src/main/java/org/apache/hadoop/hdfs/tools/offlineImageViewer/ImageVisitor.java
/home/ahmed/app/hadoop-2.7.2-src/hadoop-hdfs-project/hadoop-hdfs/src/main/java/org/apache/hadoop/hdfs/server/namenode/FSImageCompression.java
/home/ahmed/app/hadoop-2.7.2-src/hadoop-hdfs-project/hadoop-hdfs/src/main/java/org/apache/hadoop/hdfs/server/datanode/DataNodeLayoutVersion.java
/home/ahmed/app/hadoop-2.7.2-src/hadoop-hdfs-project/hadoop-hdfs/src/main/java/org/apache/hadoop/hdfs/tools/GetConf.java
/home/ahmed/app/hadoop-2.7.2-src/hadoop-hdfs-project/hadoop-hdfs/src/main/java/org/apache/hadoop/hdfs/shortcircuit/ShortCircuitReplica.java
/home/ahmed/app/hadoop-2.7.2-src/hadoop-hdfs-project/hadoop-hdfs/src/main/java/org/apache/hadoop/hdfs/tools/snapshot/LsSnapshottableDir.java
/home/ahmed/app/hadoop-2.7.2-src/hadoop-hdfs-project/hadoop-hdfs/src/main/java/org/apache/hadoop/hdfs/server/namenode/MetaRecoveryContext.java
/home/ahmed/app/hadoop-2.7.2-src/hadoop-hdfs-project/hadoop-hdfs/src/main/java/org/apache/hadoop/hdfs/server/namenode/FSDirectory.java
/home/ahmed/app/hadoop-2.7.2-src/hadoop-hdfs-project/hadoop-hdfs/src/main/java/org/apache/hadoop/hdfs/protocol/BlockLocalPathInfo.java
/home/ahmed/app/hadoop-2.7.2-src/hadoop-hdfs-project/hadoop-hdfs/src/main/java/org/apache/hadoop/hdfs/server/namenode/FSImageUtil.java
/home/ahmed/app/hadoop-2.7.2-src/hadoop-hdfs-project/hadoop-hdfs/src/main/java/org/apache/hadoop/hdfs/server/datanode/BPServiceActorAction.java
/home/ahmed/app/hadoop-2.7.2-src/hadoop-hdfs-project/hadoop-hdfs/src/main/java/org/apache/hadoop/hdfs/protocolPB/ClientNamenodeProtocolServerSideTranslatorPB.java
/home/ahmed/app/hadoop-2.7.2-src/hadoop-hdfs-project/hadoop-hdfs/src/main/java/org/apache/hadoop/hdfs/server/namenode/Content.java
/home/ahmed/app/hadoop-2.7.2-src/hadoop-hdfs-project/hadoop-hdfs/src/main/java/org/apache/hadoop/hdfs/protocolPB/ClientNamenodeProtocolPB.java
/home/ahmed/app/hadoop-2.7.2-src/hadoop-hdfs-project/hadoop-hdfs/src/main/java/org/apache/hadoop/hdfs/tools/offlineImageViewer/TextWriterImageVisitor.java
/home/ahmed/app/hadoop-2.7.2-src/hadoop-hdfs-project/hadoop-hdfs/src/main/java/org/apache/hadoop/hdfs/server/namenode/NNStorage.java
/home/ahmed/app/hadoop-2.7.2-src/hadoop-hdfs-project/hadoop-hdfs/src/main/java/org/apache/hadoop/hdfs/server/datanode/Replica.java
/home/ahmed/app/hadoop-2.7.2-src/hadoop-hdfs-project/hadoop-hdfs/src/main/java/org/apache/hadoop/hdfs/server/namenode/VersionInfoMXBean.java
/home/ahmed/app/hadoop-2.7.2-src/hadoop-hdfs-project/hadoop-hdfs/src/main/java/org/apache/hadoop/hdfs/security/token/delegation/DelegationTokenSelector.java
/home/ahmed/app/hadoop-2.7.2-src/hadoop-hdfs-project/hadoop-hdfs/src/main/java/org/apache/hadoop/hdfs/server/namenode/EditLogBackupOutputStream.java
/home/ahmed/app/hadoop-2.7.2-src/hadoop-hdfs-project/hadoop-hdfs/src/main/java/org/apache/hadoop/hdfs/protocol/RecoveryInProgressException.java
/home/ahmed/app/hadoop-2.7.2-src/hadoop-hdfs-project/hadoop-hdfs/src/main/java/org/apache/hadoop/hdfs/util/LongBitFormat.java
/home/ahmed/app/hadoop-2.7.2-src/hadoop-hdfs-project/hadoop-hdfs/src/main/java/org/apache/hadoop/hdfs/server/namenode/BackupNode.java
/home/ahmed/app/hadoop-2.7.2-src/hadoop-hdfs-project/hadoop-hdfs/src/main/java/org/apache/hadoop/hdfs/server/protocol/NamenodeRegistration.java
/home/ahmed/app/hadoop-2.7.2-src/hadoop-hdfs-project/hadoop-hdfs/src/main/java/org/apache/hadoop/hdfs/web/ByteRangeInputStream.java
/home/ahmed/app/hadoop-2.7.2-src/hadoop-hdfs-project/hadoop-hdfs/src/main/java/org/apache/hadoop/hdfs/server/namenode/FSEditLogOpCodes.java
/home/ahmed/app/hadoop-2.7.2-src/hadoop-hdfs-project/hadoop-hdfs/src/main/java/org/apache/hadoop/fs/HdfsBlockLocation.java
/home/ahmed/app/hadoop-2.7.2-src/hadoop-hdfs-project/hadoop-hdfs/src/main/java/org/apache/hadoop/hdfs/protocol/CorruptFileBlocks.java
/home/ahmed/app/hadoop-2.7.2-src/hadoop-hdfs-project/hadoop-hdfs/src/main/java/org/apache/hadoop/hdfs/server/namenode/NameNode.java
/home/ahmed/app/hadoop-2.7.2-src/hadoop-hdfs-project/hadoop-hdfs/src/main/java/org/apache/hadoop/hdfs/inotify/MissingEventsException.java
/home/ahmed/app/hadoop-2.7.2-src/hadoop-hdfs-project/hadoop-hdfs/src/main/java/org/apache/hadoop/hdfs/web/resources/XAttrEncodingParam.java
/home/ahmed/app/hadoop-2.7.2-src/hadoop-hdfs-project/hadoop-hdfs/src/main/java/org/apache/hadoop/hdfs/protocol/datatransfer/WhitelistBasedTrustedChannelResolver.java
/home/ahmed/app/hadoop-2.7.2-src/hadoop-hdfs-project/hadoop-hdfs/src/main/java/org/apache/hadoop/hdfs/security/token/delegation/DelegationTokenSecretManager.java
/home/ahmed/app/hadoop-2.7.2-src/hadoop-hdfs-project/hadoop-hdfs/src/main/java/org/apache/hadoop/hdfs/server/protocol/StorageReceivedDeletedBlocks.java
/home/ahmed/app/hadoop-2.7.2-src/hadoop-hdfs-project/hadoop-hdfs/src/main/java/org/apache/hadoop/hdfs/protocol/SnapshotException.java
/home/ahmed/app/hadoop-2.7.2-src/hadoop-hdfs-project/hadoop-hdfs/src/main/java/org/apache/hadoop/hdfs/protocol/HdfsBlocksMetadata.java
/home/ahmed/app/hadoop-2.7.2-src/hadoop-hdfs-project/hadoop-hdfs/src/main/java/org/apache/hadoop/hdfs/security/token/block/InvalidBlockTokenException.java
/home/ahmed/app/hadoop-2.7.2-src/hadoop-hdfs-project/hadoop-hdfs/src/main/java/org/apache/hadoop/hdfs/server/balancer/ExitStatus.java
